ARM GAS  C:\Users\dmarsch\AppData\Local\Temp\ccfenmHW.s 			page 1


   1              		.syntax unified
   2              		.cpu cortex-m3
   3              		.fpu softvfp
   4              		.eabi_attribute 20, 1
   5              		.eabi_attribute 21, 1
   6              		.eabi_attribute 23, 3
   7              		.eabi_attribute 24, 1
   8              		.eabi_attribute 25, 1
   9              		.eabi_attribute 26, 1
  10              		.eabi_attribute 30, 1
  11              		.eabi_attribute 34, 1
  12              		.eabi_attribute 18, 4
  13              		.thumb
  14              		.syntax unified
  15              		.file	"Motor.c"
  16              		.text
  17              	.Ltext0:
  18              		.cfi_sections	.debug_frame
  19              		.section	.text.Motor_Write,"ax",%progbits
  20              		.align	2
  21              		.global	Motor_Write
  22              		.thumb
  23              		.thumb_func
  24              		.type	Motor_Write, %function
  25              	Motor_Write:
  26              	.LFB0:
  27              		.file 1 "Generated_Source\\PSoC5\\Motor.c"
   1:Generated_Source\PSoC5/Motor.c **** /*******************************************************************************
   2:Generated_Source\PSoC5/Motor.c **** * File Name: Motor.c  
   3:Generated_Source\PSoC5/Motor.c **** * Version 2.20
   4:Generated_Source\PSoC5/Motor.c **** *
   5:Generated_Source\PSoC5/Motor.c **** * Description:
   6:Generated_Source\PSoC5/Motor.c **** *  This file contains API to enable firmware control of a Pins component.
   7:Generated_Source\PSoC5/Motor.c **** *
   8:Generated_Source\PSoC5/Motor.c **** * Note:
   9:Generated_Source\PSoC5/Motor.c **** *
  10:Generated_Source\PSoC5/Motor.c **** ********************************************************************************
  11:Generated_Source\PSoC5/Motor.c **** * Copyright 2008-2015, Cypress Semiconductor Corporation.  All rights reserved.
  12:Generated_Source\PSoC5/Motor.c **** * You may use this file only in accordance with the license, terms, conditions, 
  13:Generated_Source\PSoC5/Motor.c **** * disclaimers, and limitations in the end user license agreement accompanying 
  14:Generated_Source\PSoC5/Motor.c **** * the software package with which this file was provided.
  15:Generated_Source\PSoC5/Motor.c **** *******************************************************************************/
  16:Generated_Source\PSoC5/Motor.c **** 
  17:Generated_Source\PSoC5/Motor.c **** #include "cytypes.h"
  18:Generated_Source\PSoC5/Motor.c **** #include "Motor.h"
  19:Generated_Source\PSoC5/Motor.c **** 
  20:Generated_Source\PSoC5/Motor.c **** /* APIs are not generated for P15[7:6] on PSoC 5 */
  21:Generated_Source\PSoC5/Motor.c **** #if !(CY_PSOC5A &&\
  22:Generated_Source\PSoC5/Motor.c **** 	 Motor__PORT == 15 && ((Motor__MASK & 0xC0) != 0))
  23:Generated_Source\PSoC5/Motor.c **** 
  24:Generated_Source\PSoC5/Motor.c **** 
  25:Generated_Source\PSoC5/Motor.c **** /*******************************************************************************
  26:Generated_Source\PSoC5/Motor.c **** * Function Name: Motor_Write
  27:Generated_Source\PSoC5/Motor.c **** ****************************************************************************//**
  28:Generated_Source\PSoC5/Motor.c **** *
  29:Generated_Source\PSoC5/Motor.c **** * \brief Writes the value to the physical port (data output register), masking
  30:Generated_Source\PSoC5/Motor.c **** *  and shifting the bits appropriately. 
ARM GAS  C:\Users\dmarsch\AppData\Local\Temp\ccfenmHW.s 			page 2


  31:Generated_Source\PSoC5/Motor.c **** *
  32:Generated_Source\PSoC5/Motor.c **** * The data output register controls the signal applied to the physical pin in 
  33:Generated_Source\PSoC5/Motor.c **** * conjunction with the drive mode parameter. This function avoids changing 
  34:Generated_Source\PSoC5/Motor.c **** * other bits in the port by using the appropriate method (read-modify-write or
  35:Generated_Source\PSoC5/Motor.c **** * bit banding).
  36:Generated_Source\PSoC5/Motor.c **** *
  37:Generated_Source\PSoC5/Motor.c **** * <b>Note</b> This function should not be used on a hardware digital output pin 
  38:Generated_Source\PSoC5/Motor.c **** * as it is driven by the hardware signal attached to it.
  39:Generated_Source\PSoC5/Motor.c **** *
  40:Generated_Source\PSoC5/Motor.c **** * \param value
  41:Generated_Source\PSoC5/Motor.c **** *  Value to write to the component instance.
  42:Generated_Source\PSoC5/Motor.c **** *
  43:Generated_Source\PSoC5/Motor.c **** * \return 
  44:Generated_Source\PSoC5/Motor.c **** *  None 
  45:Generated_Source\PSoC5/Motor.c **** *
  46:Generated_Source\PSoC5/Motor.c **** * \sideeffect
  47:Generated_Source\PSoC5/Motor.c **** *  If you use read-modify-write operations that are not atomic; the Interrupt 
  48:Generated_Source\PSoC5/Motor.c **** *  Service Routines (ISR) can cause corruption of this function. An ISR that 
  49:Generated_Source\PSoC5/Motor.c **** *  interrupts this function and performs writes to the Pins component data 
  50:Generated_Source\PSoC5/Motor.c **** *  register can cause corrupted port data. To avoid this issue, you should 
  51:Generated_Source\PSoC5/Motor.c **** *  either use the Per-Pin APIs (primary method) or disable interrupts around 
  52:Generated_Source\PSoC5/Motor.c **** *  this function.
  53:Generated_Source\PSoC5/Motor.c **** *
  54:Generated_Source\PSoC5/Motor.c **** * \funcusage
  55:Generated_Source\PSoC5/Motor.c **** *  \snippet Motor_SUT.c usage_Motor_Write
  56:Generated_Source\PSoC5/Motor.c **** *******************************************************************************/
  57:Generated_Source\PSoC5/Motor.c **** void Motor_Write(uint8 value)
  58:Generated_Source\PSoC5/Motor.c **** {
  28              		.loc 1 58 0
  29              		.cfi_startproc
  30              		@ args = 0, pretend = 0, frame = 0
  31              		@ frame_needed = 0, uses_anonymous_args = 0
  32              		@ link register save eliminated.
  33              	.LVL0:
  59:Generated_Source\PSoC5/Motor.c ****     uint8 staticBits = (Motor_DR & (uint8)(~Motor_MASK));
  34              		.loc 1 59 0
  35 0000 044A     		ldr	r2, .L2
  36 0002 1378     		ldrb	r3, [r2]	@ zero_extendqisi2
  37 0004 03F0F003 		and	r3, r3, #240
  38              	.LVL1:
  60:Generated_Source\PSoC5/Motor.c ****     Motor_DR = staticBits | ((uint8)(value << Motor_SHIFT) & Motor_MASK);
  39              		.loc 1 60 0
  40 0008 00F00F00 		and	r0, r0, #15
  41              	.LVL2:
  42 000c 1843     		orrs	r0, r0, r3
  43 000e 1070     		strb	r0, [r2]
  44 0010 7047     		bx	lr
  45              	.L3:
  46 0012 00BF     		.align	2
  47              	.L2:
  48 0014 30510040 		.word	1073762608
  49              		.cfi_endproc
  50              	.LFE0:
  51              		.size	Motor_Write, .-Motor_Write
  52              		.section	.text.Motor_SetDriveMode,"ax",%progbits
  53              		.align	2
  54              		.global	Motor_SetDriveMode
ARM GAS  C:\Users\dmarsch\AppData\Local\Temp\ccfenmHW.s 			page 3


  55              		.thumb
  56              		.thumb_func
  57              		.type	Motor_SetDriveMode, %function
  58              	Motor_SetDriveMode:
  59              	.LFB1:
  61:Generated_Source\PSoC5/Motor.c **** }
  62:Generated_Source\PSoC5/Motor.c **** 
  63:Generated_Source\PSoC5/Motor.c **** 
  64:Generated_Source\PSoC5/Motor.c **** /*******************************************************************************
  65:Generated_Source\PSoC5/Motor.c **** * Function Name: Motor_SetDriveMode
  66:Generated_Source\PSoC5/Motor.c **** ****************************************************************************//**
  67:Generated_Source\PSoC5/Motor.c **** *
  68:Generated_Source\PSoC5/Motor.c **** * \brief Sets the drive mode for each of the Pins component's pins.
  69:Generated_Source\PSoC5/Motor.c **** * 
  70:Generated_Source\PSoC5/Motor.c **** * <b>Note</b> This affects all pins in the Pins component instance. Use the
  71:Generated_Source\PSoC5/Motor.c **** * Per-Pin APIs if you wish to control individual pin's drive modes.
  72:Generated_Source\PSoC5/Motor.c **** *
  73:Generated_Source\PSoC5/Motor.c **** * \param mode
  74:Generated_Source\PSoC5/Motor.c **** *  Mode for the selected signals. Valid options are documented in 
  75:Generated_Source\PSoC5/Motor.c **** *  \ref driveMode.
  76:Generated_Source\PSoC5/Motor.c **** *
  77:Generated_Source\PSoC5/Motor.c **** * \return
  78:Generated_Source\PSoC5/Motor.c **** *  None
  79:Generated_Source\PSoC5/Motor.c **** *
  80:Generated_Source\PSoC5/Motor.c **** * \sideeffect
  81:Generated_Source\PSoC5/Motor.c **** *  If you use read-modify-write operations that are not atomic, the ISR can
  82:Generated_Source\PSoC5/Motor.c **** *  cause corruption of this function. An ISR that interrupts this function 
  83:Generated_Source\PSoC5/Motor.c **** *  and performs writes to the Pins component Drive Mode registers can cause 
  84:Generated_Source\PSoC5/Motor.c **** *  corrupted port data. To avoid this issue, you should either use the Per-Pin
  85:Generated_Source\PSoC5/Motor.c **** *  APIs (primary method) or disable interrupts around this function.
  86:Generated_Source\PSoC5/Motor.c **** *
  87:Generated_Source\PSoC5/Motor.c **** * \funcusage
  88:Generated_Source\PSoC5/Motor.c **** *  \snippet Motor_SUT.c usage_Motor_SetDriveMode
  89:Generated_Source\PSoC5/Motor.c **** *******************************************************************************/
  90:Generated_Source\PSoC5/Motor.c **** void Motor_SetDriveMode(uint8 mode)
  91:Generated_Source\PSoC5/Motor.c **** {
  60              		.loc 1 91 0
  61              		.cfi_startproc
  62              		@ args = 0, pretend = 0, frame = 0
  63              		@ frame_needed = 0, uses_anonymous_args = 0
  64              		@ link register save eliminated.
  65              	.LVL3:
  92:Generated_Source\PSoC5/Motor.c **** 	CyPins_SetPinDriveMode(Motor_0, mode);
  66              		.loc 1 92 0
  67 0000 0D4A     		ldr	r2, .L5
  68 0002 1378     		ldrb	r3, [r2]	@ zero_extendqisi2
  69 0004 00F00E00 		and	r0, r0, #14
  70              	.LVL4:
  71 0008 03F0F103 		and	r3, r3, #241
  72 000c 0343     		orrs	r3, r3, r0
  73 000e 1370     		strb	r3, [r2]
  93:Generated_Source\PSoC5/Motor.c **** 	CyPins_SetPinDriveMode(Motor_1, mode);
  74              		.loc 1 93 0
  75 0010 0132     		adds	r2, r2, #1
  76 0012 1378     		ldrb	r3, [r2]	@ zero_extendqisi2
  77 0014 03F0F103 		and	r3, r3, #241
  78 0018 0343     		orrs	r3, r3, r0
ARM GAS  C:\Users\dmarsch\AppData\Local\Temp\ccfenmHW.s 			page 4


  79 001a 1370     		strb	r3, [r2]
  94:Generated_Source\PSoC5/Motor.c **** 	CyPins_SetPinDriveMode(Motor_2, mode);
  80              		.loc 1 94 0
  81 001c 0132     		adds	r2, r2, #1
  82 001e 1378     		ldrb	r3, [r2]	@ zero_extendqisi2
  83 0020 03F0F103 		and	r3, r3, #241
  84 0024 0343     		orrs	r3, r3, r0
  85 0026 1370     		strb	r3, [r2]
  95:Generated_Source\PSoC5/Motor.c **** 	CyPins_SetPinDriveMode(Motor_3, mode);
  86              		.loc 1 95 0
  87 0028 0132     		adds	r2, r2, #1
  88 002a 1378     		ldrb	r3, [r2]	@ zero_extendqisi2
  89 002c 03F0F103 		and	r3, r3, #241
  90 0030 1843     		orrs	r0, r0, r3
  91 0032 1070     		strb	r0, [r2]
  92 0034 7047     		bx	lr
  93              	.L6:
  94 0036 00BF     		.align	2
  95              	.L5:
  96 0038 18500040 		.word	1073762328
  97              		.cfi_endproc
  98              	.LFE1:
  99              		.size	Motor_SetDriveMode, .-Motor_SetDriveMode
 100              		.section	.text.Motor_Read,"ax",%progbits
 101              		.align	2
 102              		.global	Motor_Read
 103              		.thumb
 104              		.thumb_func
 105              		.type	Motor_Read, %function
 106              	Motor_Read:
 107              	.LFB2:
  96:Generated_Source\PSoC5/Motor.c **** }
  97:Generated_Source\PSoC5/Motor.c **** 
  98:Generated_Source\PSoC5/Motor.c **** 
  99:Generated_Source\PSoC5/Motor.c **** /*******************************************************************************
 100:Generated_Source\PSoC5/Motor.c **** * Function Name: Motor_Read
 101:Generated_Source\PSoC5/Motor.c **** ****************************************************************************//**
 102:Generated_Source\PSoC5/Motor.c **** *
 103:Generated_Source\PSoC5/Motor.c **** * \brief Reads the associated physical port (pin status register) and masks 
 104:Generated_Source\PSoC5/Motor.c **** *  the required bits according to the width and bit position of the component
 105:Generated_Source\PSoC5/Motor.c **** *  instance. 
 106:Generated_Source\PSoC5/Motor.c **** *
 107:Generated_Source\PSoC5/Motor.c **** * The pin's status register returns the current logic level present on the 
 108:Generated_Source\PSoC5/Motor.c **** * physical pin.
 109:Generated_Source\PSoC5/Motor.c **** *
 110:Generated_Source\PSoC5/Motor.c **** * \return 
 111:Generated_Source\PSoC5/Motor.c **** *  The current value for the pins in the component as a right justified number.
 112:Generated_Source\PSoC5/Motor.c **** *
 113:Generated_Source\PSoC5/Motor.c **** * \funcusage
 114:Generated_Source\PSoC5/Motor.c **** *  \snippet Motor_SUT.c usage_Motor_Read  
 115:Generated_Source\PSoC5/Motor.c **** *******************************************************************************/
 116:Generated_Source\PSoC5/Motor.c **** uint8 Motor_Read(void)
 117:Generated_Source\PSoC5/Motor.c **** {
 108              		.loc 1 117 0
 109              		.cfi_startproc
 110              		@ args = 0, pretend = 0, frame = 0
 111              		@ frame_needed = 0, uses_anonymous_args = 0
ARM GAS  C:\Users\dmarsch\AppData\Local\Temp\ccfenmHW.s 			page 5


 112              		@ link register save eliminated.
 118:Generated_Source\PSoC5/Motor.c ****     return (Motor_PS & Motor_MASK) >> Motor_SHIFT;
 113              		.loc 1 118 0
 114 0000 024B     		ldr	r3, .L8
 115 0002 1878     		ldrb	r0, [r3]	@ zero_extendqisi2
 119:Generated_Source\PSoC5/Motor.c **** }
 116              		.loc 1 119 0
 117 0004 00F00F00 		and	r0, r0, #15
 118 0008 7047     		bx	lr
 119              	.L9:
 120 000a 00BF     		.align	2
 121              	.L8:
 122 000c 31510040 		.word	1073762609
 123              		.cfi_endproc
 124              	.LFE2:
 125              		.size	Motor_Read, .-Motor_Read
 126              		.section	.text.Motor_ReadDataReg,"ax",%progbits
 127              		.align	2
 128              		.global	Motor_ReadDataReg
 129              		.thumb
 130              		.thumb_func
 131              		.type	Motor_ReadDataReg, %function
 132              	Motor_ReadDataReg:
 133              	.LFB3:
 120:Generated_Source\PSoC5/Motor.c **** 
 121:Generated_Source\PSoC5/Motor.c **** 
 122:Generated_Source\PSoC5/Motor.c **** /*******************************************************************************
 123:Generated_Source\PSoC5/Motor.c **** * Function Name: Motor_ReadDataReg
 124:Generated_Source\PSoC5/Motor.c **** ****************************************************************************//**
 125:Generated_Source\PSoC5/Motor.c **** *
 126:Generated_Source\PSoC5/Motor.c **** * \brief Reads the associated physical port's data output register and masks 
 127:Generated_Source\PSoC5/Motor.c **** *  the correct bits according to the width and bit position of the component 
 128:Generated_Source\PSoC5/Motor.c **** *  instance. 
 129:Generated_Source\PSoC5/Motor.c **** *
 130:Generated_Source\PSoC5/Motor.c **** * The data output register controls the signal applied to the physical pin in 
 131:Generated_Source\PSoC5/Motor.c **** * conjunction with the drive mode parameter. This is not the same as the 
 132:Generated_Source\PSoC5/Motor.c **** * preferred Motor_Read() API because the 
 133:Generated_Source\PSoC5/Motor.c **** * Motor_ReadDataReg() reads the data register instead of the status 
 134:Generated_Source\PSoC5/Motor.c **** * register. For output pins this is a useful function to determine the value 
 135:Generated_Source\PSoC5/Motor.c **** * just written to the pin.
 136:Generated_Source\PSoC5/Motor.c **** *
 137:Generated_Source\PSoC5/Motor.c **** * \return 
 138:Generated_Source\PSoC5/Motor.c **** *  The current value of the data register masked and shifted into a right 
 139:Generated_Source\PSoC5/Motor.c **** *  justified number for the component instance.
 140:Generated_Source\PSoC5/Motor.c **** *
 141:Generated_Source\PSoC5/Motor.c **** * \funcusage
 142:Generated_Source\PSoC5/Motor.c **** *  \snippet Motor_SUT.c usage_Motor_ReadDataReg 
 143:Generated_Source\PSoC5/Motor.c **** *******************************************************************************/
 144:Generated_Source\PSoC5/Motor.c **** uint8 Motor_ReadDataReg(void)
 145:Generated_Source\PSoC5/Motor.c **** {
 134              		.loc 1 145 0
 135              		.cfi_startproc
 136              		@ args = 0, pretend = 0, frame = 0
 137              		@ frame_needed = 0, uses_anonymous_args = 0
 138              		@ link register save eliminated.
 146:Generated_Source\PSoC5/Motor.c ****     return (Motor_DR & Motor_MASK) >> Motor_SHIFT;
 139              		.loc 1 146 0
ARM GAS  C:\Users\dmarsch\AppData\Local\Temp\ccfenmHW.s 			page 6


 140 0000 024B     		ldr	r3, .L11
 141 0002 1878     		ldrb	r0, [r3]	@ zero_extendqisi2
 147:Generated_Source\PSoC5/Motor.c **** }
 142              		.loc 1 147 0
 143 0004 00F00F00 		and	r0, r0, #15
 144 0008 7047     		bx	lr
 145              	.L12:
 146 000a 00BF     		.align	2
 147              	.L11:
 148 000c 30510040 		.word	1073762608
 149              		.cfi_endproc
 150              	.LFE3:
 151              		.size	Motor_ReadDataReg, .-Motor_ReadDataReg
 152              		.text
 153              	.Letext0:
 154              		.file 2 "Generated_Source\\PSoC5\\cytypes.h"
 155              		.section	.debug_info,"",%progbits
 156              	.Ldebug_info0:
 157 0000 1B010000 		.4byte	0x11b
 158 0004 0400     		.2byte	0x4
 159 0006 00000000 		.4byte	.Ldebug_abbrev0
 160 000a 04       		.byte	0x4
 161 000b 01       		.uleb128 0x1
 162 000c 61000000 		.4byte	.LASF20
 163 0010 0C       		.byte	0xc
 164 0011 2E000000 		.4byte	.LASF21
 165 0015 44010000 		.4byte	.LASF22
 166 0019 00000000 		.4byte	.Ldebug_ranges0+0
 167 001d 00000000 		.4byte	0
 168 0021 00000000 		.4byte	.Ldebug_line0
 169 0025 02       		.uleb128 0x2
 170 0026 01       		.byte	0x1
 171 0027 06       		.byte	0x6
 172 0028 C4010000 		.4byte	.LASF0
 173 002c 02       		.uleb128 0x2
 174 002d 01       		.byte	0x1
 175 002e 08       		.byte	0x8
 176 002f 53000000 		.4byte	.LASF1
 177 0033 02       		.uleb128 0x2
 178 0034 02       		.byte	0x2
 179 0035 05       		.byte	0x5
 180 0036 8C010000 		.4byte	.LASF2
 181 003a 02       		.uleb128 0x2
 182 003b 02       		.byte	0x2
 183 003c 07       		.byte	0x7
 184 003d 06010000 		.4byte	.LASF3
 185 0041 02       		.uleb128 0x2
 186 0042 04       		.byte	0x4
 187 0043 05       		.byte	0x5
 188 0044 AF010000 		.4byte	.LASF4
 189 0048 02       		.uleb128 0x2
 190 0049 04       		.byte	0x4
 191 004a 07       		.byte	0x7
 192 004b F4000000 		.4byte	.LASF5
 193 004f 02       		.uleb128 0x2
 194 0050 08       		.byte	0x8
 195 0051 05       		.byte	0x5
ARM GAS  C:\Users\dmarsch\AppData\Local\Temp\ccfenmHW.s 			page 7


 196 0052 79010000 		.4byte	.LASF6
 197 0056 02       		.uleb128 0x2
 198 0057 08       		.byte	0x8
 199 0058 07       		.byte	0x7
 200 0059 2D010000 		.4byte	.LASF7
 201 005d 03       		.uleb128 0x3
 202 005e 04       		.byte	0x4
 203 005f 05       		.byte	0x5
 204 0060 696E7400 		.ascii	"int\000"
 205 0064 02       		.uleb128 0x2
 206 0065 04       		.byte	0x4
 207 0066 07       		.byte	0x7
 208 0067 20010000 		.4byte	.LASF8
 209 006b 04       		.uleb128 0x4
 210 006c 96010000 		.4byte	.LASF12
 211 0070 02       		.byte	0x2
 212 0071 E401     		.2byte	0x1e4
 213 0073 2C000000 		.4byte	0x2c
 214 0077 02       		.uleb128 0x2
 215 0078 04       		.byte	0x4
 216 0079 04       		.byte	0x4
 217 007a 4D000000 		.4byte	.LASF9
 218 007e 02       		.uleb128 0x2
 219 007f 08       		.byte	0x8
 220 0080 04       		.byte	0x4
 221 0081 19010000 		.4byte	.LASF10
 222 0085 02       		.uleb128 0x2
 223 0086 01       		.byte	0x1
 224 0087 08       		.byte	0x8
 225 0088 87010000 		.4byte	.LASF11
 226 008c 04       		.uleb128 0x4
 227 008d EF000000 		.4byte	.LASF13
 228 0091 02       		.byte	0x2
 229 0092 8E02     		.2byte	0x28e
 230 0094 98000000 		.4byte	0x98
 231 0098 05       		.uleb128 0x5
 232 0099 6B000000 		.4byte	0x6b
 233 009d 06       		.uleb128 0x6
 234 009e B8010000 		.4byte	.LASF14
 235 00a2 01       		.byte	0x1
 236 00a3 39       		.byte	0x39
 237 00a4 00000000 		.4byte	.LFB0
 238 00a8 18000000 		.4byte	.LFE0-.LFB0
 239 00ac 01       		.uleb128 0x1
 240 00ad 9C       		.byte	0x9c
 241 00ae CF000000 		.4byte	0xcf
 242 00b2 07       		.uleb128 0x7
 243 00b3 12000000 		.4byte	.LASF16
 244 00b7 01       		.byte	0x1
 245 00b8 39       		.byte	0x39
 246 00b9 6B000000 		.4byte	0x6b
 247 00bd 00000000 		.4byte	.LLST0
 248 00c1 08       		.uleb128 0x8
 249 00c2 18000000 		.4byte	.LASF23
 250 00c6 01       		.byte	0x1
 251 00c7 3B       		.byte	0x3b
 252 00c8 6B000000 		.4byte	0x6b
ARM GAS  C:\Users\dmarsch\AppData\Local\Temp\ccfenmHW.s 			page 8


 253 00cc 01       		.uleb128 0x1
 254 00cd 53       		.byte	0x53
 255 00ce 00       		.byte	0
 256 00cf 06       		.uleb128 0x6
 257 00d0 9C010000 		.4byte	.LASF15
 258 00d4 01       		.byte	0x1
 259 00d5 5A       		.byte	0x5a
 260 00d6 00000000 		.4byte	.LFB1
 261 00da 3C000000 		.4byte	.LFE1-.LFB1
 262 00de 01       		.uleb128 0x1
 263 00df 9C       		.byte	0x9c
 264 00e0 F4000000 		.4byte	0xf4
 265 00e4 07       		.uleb128 0x7
 266 00e5 74010000 		.4byte	.LASF17
 267 00e9 01       		.byte	0x1
 268 00ea 5A       		.byte	0x5a
 269 00eb 6B000000 		.4byte	0x6b
 270 00ef 21000000 		.4byte	.LLST1
 271 00f3 00       		.byte	0
 272 00f4 09       		.uleb128 0x9
 273 00f5 23000000 		.4byte	.LASF18
 274 00f9 01       		.byte	0x1
 275 00fa 74       		.byte	0x74
 276 00fb 6B000000 		.4byte	0x6b
 277 00ff 00000000 		.4byte	.LFB2
 278 0103 10000000 		.4byte	.LFE2-.LFB2
 279 0107 01       		.uleb128 0x1
 280 0108 9C       		.byte	0x9c
 281 0109 09       		.uleb128 0x9
 282 010a 00000000 		.4byte	.LASF19
 283 010e 01       		.byte	0x1
 284 010f 90       		.byte	0x90
 285 0110 6B000000 		.4byte	0x6b
 286 0114 00000000 		.4byte	.LFB3
 287 0118 10000000 		.4byte	.LFE3-.LFB3
 288 011c 01       		.uleb128 0x1
 289 011d 9C       		.byte	0x9c
 290 011e 00       		.byte	0
 291              		.section	.debug_abbrev,"",%progbits
 292              	.Ldebug_abbrev0:
 293 0000 01       		.uleb128 0x1
 294 0001 11       		.uleb128 0x11
 295 0002 01       		.byte	0x1
 296 0003 25       		.uleb128 0x25
 297 0004 0E       		.uleb128 0xe
 298 0005 13       		.uleb128 0x13
 299 0006 0B       		.uleb128 0xb
 300 0007 03       		.uleb128 0x3
 301 0008 0E       		.uleb128 0xe
 302 0009 1B       		.uleb128 0x1b
 303 000a 0E       		.uleb128 0xe
 304 000b 55       		.uleb128 0x55
 305 000c 17       		.uleb128 0x17
 306 000d 11       		.uleb128 0x11
 307 000e 01       		.uleb128 0x1
 308 000f 10       		.uleb128 0x10
 309 0010 17       		.uleb128 0x17
ARM GAS  C:\Users\dmarsch\AppData\Local\Temp\ccfenmHW.s 			page 9


 310 0011 00       		.byte	0
 311 0012 00       		.byte	0
 312 0013 02       		.uleb128 0x2
 313 0014 24       		.uleb128 0x24
 314 0015 00       		.byte	0
 315 0016 0B       		.uleb128 0xb
 316 0017 0B       		.uleb128 0xb
 317 0018 3E       		.uleb128 0x3e
 318 0019 0B       		.uleb128 0xb
 319 001a 03       		.uleb128 0x3
 320 001b 0E       		.uleb128 0xe
 321 001c 00       		.byte	0
 322 001d 00       		.byte	0
 323 001e 03       		.uleb128 0x3
 324 001f 24       		.uleb128 0x24
 325 0020 00       		.byte	0
 326 0021 0B       		.uleb128 0xb
 327 0022 0B       		.uleb128 0xb
 328 0023 3E       		.uleb128 0x3e
 329 0024 0B       		.uleb128 0xb
 330 0025 03       		.uleb128 0x3
 331 0026 08       		.uleb128 0x8
 332 0027 00       		.byte	0
 333 0028 00       		.byte	0
 334 0029 04       		.uleb128 0x4
 335 002a 16       		.uleb128 0x16
 336 002b 00       		.byte	0
 337 002c 03       		.uleb128 0x3
 338 002d 0E       		.uleb128 0xe
 339 002e 3A       		.uleb128 0x3a
 340 002f 0B       		.uleb128 0xb
 341 0030 3B       		.uleb128 0x3b
 342 0031 05       		.uleb128 0x5
 343 0032 49       		.uleb128 0x49
 344 0033 13       		.uleb128 0x13
 345 0034 00       		.byte	0
 346 0035 00       		.byte	0
 347 0036 05       		.uleb128 0x5
 348 0037 35       		.uleb128 0x35
 349 0038 00       		.byte	0
 350 0039 49       		.uleb128 0x49
 351 003a 13       		.uleb128 0x13
 352 003b 00       		.byte	0
 353 003c 00       		.byte	0
 354 003d 06       		.uleb128 0x6
 355 003e 2E       		.uleb128 0x2e
 356 003f 01       		.byte	0x1
 357 0040 3F       		.uleb128 0x3f
 358 0041 19       		.uleb128 0x19
 359 0042 03       		.uleb128 0x3
 360 0043 0E       		.uleb128 0xe
 361 0044 3A       		.uleb128 0x3a
 362 0045 0B       		.uleb128 0xb
 363 0046 3B       		.uleb128 0x3b
 364 0047 0B       		.uleb128 0xb
 365 0048 27       		.uleb128 0x27
 366 0049 19       		.uleb128 0x19
ARM GAS  C:\Users\dmarsch\AppData\Local\Temp\ccfenmHW.s 			page 10


 367 004a 11       		.uleb128 0x11
 368 004b 01       		.uleb128 0x1
 369 004c 12       		.uleb128 0x12
 370 004d 06       		.uleb128 0x6
 371 004e 40       		.uleb128 0x40
 372 004f 18       		.uleb128 0x18
 373 0050 9742     		.uleb128 0x2117
 374 0052 19       		.uleb128 0x19
 375 0053 01       		.uleb128 0x1
 376 0054 13       		.uleb128 0x13
 377 0055 00       		.byte	0
 378 0056 00       		.byte	0
 379 0057 07       		.uleb128 0x7
 380 0058 05       		.uleb128 0x5
 381 0059 00       		.byte	0
 382 005a 03       		.uleb128 0x3
 383 005b 0E       		.uleb128 0xe
 384 005c 3A       		.uleb128 0x3a
 385 005d 0B       		.uleb128 0xb
 386 005e 3B       		.uleb128 0x3b
 387 005f 0B       		.uleb128 0xb
 388 0060 49       		.uleb128 0x49
 389 0061 13       		.uleb128 0x13
 390 0062 02       		.uleb128 0x2
 391 0063 17       		.uleb128 0x17
 392 0064 00       		.byte	0
 393 0065 00       		.byte	0
 394 0066 08       		.uleb128 0x8
 395 0067 34       		.uleb128 0x34
 396 0068 00       		.byte	0
 397 0069 03       		.uleb128 0x3
 398 006a 0E       		.uleb128 0xe
 399 006b 3A       		.uleb128 0x3a
 400 006c 0B       		.uleb128 0xb
 401 006d 3B       		.uleb128 0x3b
 402 006e 0B       		.uleb128 0xb
 403 006f 49       		.uleb128 0x49
 404 0070 13       		.uleb128 0x13
 405 0071 02       		.uleb128 0x2
 406 0072 18       		.uleb128 0x18
 407 0073 00       		.byte	0
 408 0074 00       		.byte	0
 409 0075 09       		.uleb128 0x9
 410 0076 2E       		.uleb128 0x2e
 411 0077 00       		.byte	0
 412 0078 3F       		.uleb128 0x3f
 413 0079 19       		.uleb128 0x19
 414 007a 03       		.uleb128 0x3
 415 007b 0E       		.uleb128 0xe
 416 007c 3A       		.uleb128 0x3a
 417 007d 0B       		.uleb128 0xb
 418 007e 3B       		.uleb128 0x3b
 419 007f 0B       		.uleb128 0xb
 420 0080 27       		.uleb128 0x27
 421 0081 19       		.uleb128 0x19
 422 0082 49       		.uleb128 0x49
 423 0083 13       		.uleb128 0x13
ARM GAS  C:\Users\dmarsch\AppData\Local\Temp\ccfenmHW.s 			page 11


 424 0084 11       		.uleb128 0x11
 425 0085 01       		.uleb128 0x1
 426 0086 12       		.uleb128 0x12
 427 0087 06       		.uleb128 0x6
 428 0088 40       		.uleb128 0x40
 429 0089 18       		.uleb128 0x18
 430 008a 9742     		.uleb128 0x2117
 431 008c 19       		.uleb128 0x19
 432 008d 00       		.byte	0
 433 008e 00       		.byte	0
 434 008f 00       		.byte	0
 435              		.section	.debug_loc,"",%progbits
 436              	.Ldebug_loc0:
 437              	.LLST0:
 438 0000 00000000 		.4byte	.LVL0
 439 0004 0C000000 		.4byte	.LVL2
 440 0008 0100     		.2byte	0x1
 441 000a 50       		.byte	0x50
 442 000b 0C000000 		.4byte	.LVL2
 443 000f 18000000 		.4byte	.LFE0
 444 0013 0400     		.2byte	0x4
 445 0015 F3       		.byte	0xf3
 446 0016 01       		.uleb128 0x1
 447 0017 50       		.byte	0x50
 448 0018 9F       		.byte	0x9f
 449 0019 00000000 		.4byte	0
 450 001d 00000000 		.4byte	0
 451              	.LLST1:
 452 0021 00000000 		.4byte	.LVL3
 453 0025 08000000 		.4byte	.LVL4
 454 0029 0100     		.2byte	0x1
 455 002b 50       		.byte	0x50
 456 002c 08000000 		.4byte	.LVL4
 457 0030 3C000000 		.4byte	.LFE1
 458 0034 0400     		.2byte	0x4
 459 0036 F3       		.byte	0xf3
 460 0037 01       		.uleb128 0x1
 461 0038 50       		.byte	0x50
 462 0039 9F       		.byte	0x9f
 463 003a 00000000 		.4byte	0
 464 003e 00000000 		.4byte	0
 465              		.section	.debug_aranges,"",%progbits
 466 0000 34000000 		.4byte	0x34
 467 0004 0200     		.2byte	0x2
 468 0006 00000000 		.4byte	.Ldebug_info0
 469 000a 04       		.byte	0x4
 470 000b 00       		.byte	0
 471 000c 0000     		.2byte	0
 472 000e 0000     		.2byte	0
 473 0010 00000000 		.4byte	.LFB0
 474 0014 18000000 		.4byte	.LFE0-.LFB0
 475 0018 00000000 		.4byte	.LFB1
 476 001c 3C000000 		.4byte	.LFE1-.LFB1
 477 0020 00000000 		.4byte	.LFB2
 478 0024 10000000 		.4byte	.LFE2-.LFB2
 479 0028 00000000 		.4byte	.LFB3
 480 002c 10000000 		.4byte	.LFE3-.LFB3
ARM GAS  C:\Users\dmarsch\AppData\Local\Temp\ccfenmHW.s 			page 12


 481 0030 00000000 		.4byte	0
 482 0034 00000000 		.4byte	0
 483              		.section	.debug_ranges,"",%progbits
 484              	.Ldebug_ranges0:
 485 0000 00000000 		.4byte	.LFB0
 486 0004 18000000 		.4byte	.LFE0
 487 0008 00000000 		.4byte	.LFB1
 488 000c 3C000000 		.4byte	.LFE1
 489 0010 00000000 		.4byte	.LFB2
 490 0014 10000000 		.4byte	.LFE2
 491 0018 00000000 		.4byte	.LFB3
 492 001c 10000000 		.4byte	.LFE3
 493 0020 00000000 		.4byte	0
 494 0024 00000000 		.4byte	0
 495              		.section	.debug_line,"",%progbits
 496              	.Ldebug_line0:
 497 0000 91000000 		.section	.debug_str,"MS",%progbits,1
 497      02004200 
 497      00000201 
 497      FB0E0D00 
 497      01010101 
 498              	.LASF19:
 499 0000 4D6F746F 		.ascii	"Motor_ReadDataReg\000"
 499      725F5265 
 499      61644461 
 499      74615265 
 499      6700
 500              	.LASF16:
 501 0012 76616C75 		.ascii	"value\000"
 501      6500
 502              	.LASF23:
 503 0018 73746174 		.ascii	"staticBits\000"
 503      69634269 
 503      747300
 504              	.LASF18:
 505 0023 4D6F746F 		.ascii	"Motor_Read\000"
 505      725F5265 
 505      616400
 506              	.LASF21:
 507 002e 47656E65 		.ascii	"Generated_Source\\PSoC5\\Motor.c\000"
 507      72617465 
 507      645F536F 
 507      75726365 
 507      5C50536F 
 508              	.LASF9:
 509 004d 666C6F61 		.ascii	"float\000"
 509      7400
 510              	.LASF1:
 511 0053 756E7369 		.ascii	"unsigned char\000"
 511      676E6564 
 511      20636861 
 511      7200
 512              	.LASF20:
 513 0061 474E5520 		.ascii	"GNU C11 5.4.1 20160609 (release) [ARM/embedded-5-br"
 513      43313120 
 513      352E342E 
 513      31203230 
ARM GAS  C:\Users\dmarsch\AppData\Local\Temp\ccfenmHW.s 			page 13


 513      31363036 
 514 0094 616E6368 		.ascii	"anch revision 237715] -mcpu=cortex-m3 -mthumb -g -O"
 514      20726576 
 514      6973696F 
 514      6E203233 
 514      37373135 
 515 00c7 67202D66 		.ascii	"g -ffunction-sections -ffat-lto-objects\000"
 515      66756E63 
 515      74696F6E 
 515      2D736563 
 515      74696F6E 
 516              	.LASF13:
 517 00ef 72656738 		.ascii	"reg8\000"
 517      00
 518              	.LASF5:
 519 00f4 6C6F6E67 		.ascii	"long unsigned int\000"
 519      20756E73 
 519      69676E65 
 519      6420696E 
 519      7400
 520              	.LASF3:
 521 0106 73686F72 		.ascii	"short unsigned int\000"
 521      7420756E 
 521      7369676E 
 521      65642069 
 521      6E7400
 522              	.LASF10:
 523 0119 646F7562 		.ascii	"double\000"
 523      6C6500
 524              	.LASF8:
 525 0120 756E7369 		.ascii	"unsigned int\000"
 525      676E6564 
 525      20696E74 
 525      00
 526              	.LASF7:
 527 012d 6C6F6E67 		.ascii	"long long unsigned int\000"
 527      206C6F6E 
 527      6720756E 
 527      7369676E 
 527      65642069 
 528              	.LASF22:
 529 0144 433A5C55 		.ascii	"C:\\Users\\dmarsch\\Documents\\lab8\\lab8\\lab8.cyd"
 529      73657273 
 529      5C646D61 
 529      72736368 
 529      5C446F63 
 530 0171 736E00   		.ascii	"sn\000"
 531              	.LASF17:
 532 0174 6D6F6465 		.ascii	"mode\000"
 532      00
 533              	.LASF6:
 534 0179 6C6F6E67 		.ascii	"long long int\000"
 534      206C6F6E 
 534      6720696E 
 534      7400
 535              	.LASF11:
 536 0187 63686172 		.ascii	"char\000"
ARM GAS  C:\Users\dmarsch\AppData\Local\Temp\ccfenmHW.s 			page 14


 536      00
 537              	.LASF2:
 538 018c 73686F72 		.ascii	"short int\000"
 538      7420696E 
 538      7400
 539              	.LASF12:
 540 0196 75696E74 		.ascii	"uint8\000"
 540      3800
 541              	.LASF15:
 542 019c 4D6F746F 		.ascii	"Motor_SetDriveMode\000"
 542      725F5365 
 542      74447269 
 542      76654D6F 
 542      646500
 543              	.LASF4:
 544 01af 6C6F6E67 		.ascii	"long int\000"
 544      20696E74 
 544      00
 545              	.LASF14:
 546 01b8 4D6F746F 		.ascii	"Motor_Write\000"
 546      725F5772 
 546      69746500 
 547              	.LASF0:
 548 01c4 7369676E 		.ascii	"signed char\000"
 548      65642063 
 548      68617200 
 549              		.ident	"GCC: (GNU Tools for ARM Embedded Processors) 5.4.1 20160609 (release) [ARM/embedded-5-bran
