ARM GAS  C:\Users\dmarsch\AppData\Local\Temp\ccq0yn5M.s 			page 1


   1              		.syntax unified
   2              		.cpu cortex-m3
   3              		.fpu softvfp
   4              		.eabi_attribute 20, 1
   5              		.eabi_attribute 21, 1
   6              		.eabi_attribute 23, 3
   7              		.eabi_attribute 24, 1
   8              		.eabi_attribute 25, 1
   9              		.eabi_attribute 26, 1
  10              		.eabi_attribute 30, 1
  11              		.eabi_attribute 34, 1
  12              		.eabi_attribute 18, 4
  13              		.thumb
  14              		.syntax unified
  15              		.file	"Motor_State.c"
  16              		.text
  17              	.Ltext0:
  18              		.cfi_sections	.debug_frame
  19              		.section	.text.Motor_State_Read,"ax",%progbits
  20              		.align	2
  21              		.global	Motor_State_Read
  22              		.thumb
  23              		.thumb_func
  24              		.type	Motor_State_Read, %function
  25              	Motor_State_Read:
  26              	.LFB0:
  27              		.file 1 "Generated_Source\\PSoC5\\Motor_State.c"
   1:Generated_Source\PSoC5/Motor_State.c **** /*******************************************************************************
   2:Generated_Source\PSoC5/Motor_State.c **** * File Name: Motor_State.c  
   3:Generated_Source\PSoC5/Motor_State.c **** * Version 1.90
   4:Generated_Source\PSoC5/Motor_State.c **** *
   5:Generated_Source\PSoC5/Motor_State.c **** * Description:
   6:Generated_Source\PSoC5/Motor_State.c **** *  This file contains API to enable firmware to read the value of a Status 
   7:Generated_Source\PSoC5/Motor_State.c **** *  Register.
   8:Generated_Source\PSoC5/Motor_State.c **** *
   9:Generated_Source\PSoC5/Motor_State.c **** * Note:
  10:Generated_Source\PSoC5/Motor_State.c **** *
  11:Generated_Source\PSoC5/Motor_State.c **** ********************************************************************************
  12:Generated_Source\PSoC5/Motor_State.c **** * Copyright 2008-2015, Cypress Semiconductor Corporation.  All rights reserved.
  13:Generated_Source\PSoC5/Motor_State.c **** * You may use this file only in accordance with the license, terms, conditions, 
  14:Generated_Source\PSoC5/Motor_State.c **** * disclaimers, and limitations in the end user license agreement accompanying 
  15:Generated_Source\PSoC5/Motor_State.c **** * the software package with which this file was provided.
  16:Generated_Source\PSoC5/Motor_State.c **** *******************************************************************************/
  17:Generated_Source\PSoC5/Motor_State.c **** 
  18:Generated_Source\PSoC5/Motor_State.c **** #include "Motor_State.h"
  19:Generated_Source\PSoC5/Motor_State.c **** 
  20:Generated_Source\PSoC5/Motor_State.c **** #if !defined(Motor_State_sts_sts_reg__REMOVED) /* Check for removal by optimization */
  21:Generated_Source\PSoC5/Motor_State.c **** 
  22:Generated_Source\PSoC5/Motor_State.c **** 
  23:Generated_Source\PSoC5/Motor_State.c **** /*******************************************************************************
  24:Generated_Source\PSoC5/Motor_State.c **** * Function Name: Motor_State_Read
  25:Generated_Source\PSoC5/Motor_State.c **** ********************************************************************************
  26:Generated_Source\PSoC5/Motor_State.c **** *
  27:Generated_Source\PSoC5/Motor_State.c **** * Summary:
  28:Generated_Source\PSoC5/Motor_State.c **** *  Reads the current value assigned to the Status Register.
  29:Generated_Source\PSoC5/Motor_State.c **** *
  30:Generated_Source\PSoC5/Motor_State.c **** * Parameters:
ARM GAS  C:\Users\dmarsch\AppData\Local\Temp\ccq0yn5M.s 			page 2


  31:Generated_Source\PSoC5/Motor_State.c **** *  None.
  32:Generated_Source\PSoC5/Motor_State.c **** *
  33:Generated_Source\PSoC5/Motor_State.c **** * Return:
  34:Generated_Source\PSoC5/Motor_State.c **** *  The current value in the Status Register.
  35:Generated_Source\PSoC5/Motor_State.c **** *
  36:Generated_Source\PSoC5/Motor_State.c **** *******************************************************************************/
  37:Generated_Source\PSoC5/Motor_State.c **** uint8 Motor_State_Read(void) 
  38:Generated_Source\PSoC5/Motor_State.c **** { 
  28              		.loc 1 38 0
  29              		.cfi_startproc
  30              		@ args = 0, pretend = 0, frame = 0
  31              		@ frame_needed = 0, uses_anonymous_args = 0
  32              		@ link register save eliminated.
  39:Generated_Source\PSoC5/Motor_State.c ****     return Motor_State_Status;
  33              		.loc 1 39 0
  34 0000 014B     		ldr	r3, .L2
  35 0002 1878     		ldrb	r0, [r3]	@ zero_extendqisi2
  40:Generated_Source\PSoC5/Motor_State.c **** }
  36              		.loc 1 40 0
  37 0004 7047     		bx	lr
  38              	.L3:
  39 0006 00BF     		.align	2
  40              	.L2:
  41 0008 65650040 		.word	1073767781
  42              		.cfi_endproc
  43              	.LFE0:
  44              		.size	Motor_State_Read, .-Motor_State_Read
  45              		.section	.text.Motor_State_InterruptEnable,"ax",%progbits
  46              		.align	2
  47              		.global	Motor_State_InterruptEnable
  48              		.thumb
  49              		.thumb_func
  50              		.type	Motor_State_InterruptEnable, %function
  51              	Motor_State_InterruptEnable:
  52              	.LFB1:
  41:Generated_Source\PSoC5/Motor_State.c **** 
  42:Generated_Source\PSoC5/Motor_State.c **** 
  43:Generated_Source\PSoC5/Motor_State.c **** /*******************************************************************************
  44:Generated_Source\PSoC5/Motor_State.c **** * Function Name: Motor_State_InterruptEnable
  45:Generated_Source\PSoC5/Motor_State.c **** ********************************************************************************
  46:Generated_Source\PSoC5/Motor_State.c **** *
  47:Generated_Source\PSoC5/Motor_State.c **** * Summary:
  48:Generated_Source\PSoC5/Motor_State.c **** *  Enables the Status Register interrupt.
  49:Generated_Source\PSoC5/Motor_State.c **** *
  50:Generated_Source\PSoC5/Motor_State.c **** * Parameters:
  51:Generated_Source\PSoC5/Motor_State.c **** *  None.
  52:Generated_Source\PSoC5/Motor_State.c **** *
  53:Generated_Source\PSoC5/Motor_State.c **** * Return:
  54:Generated_Source\PSoC5/Motor_State.c **** *  None.
  55:Generated_Source\PSoC5/Motor_State.c **** *
  56:Generated_Source\PSoC5/Motor_State.c **** *******************************************************************************/
  57:Generated_Source\PSoC5/Motor_State.c **** void Motor_State_InterruptEnable(void) 
  58:Generated_Source\PSoC5/Motor_State.c **** {
  53              		.loc 1 58 0
  54              		.cfi_startproc
  55              		@ args = 0, pretend = 0, frame = 0
  56              		@ frame_needed = 0, uses_anonymous_args = 0
ARM GAS  C:\Users\dmarsch\AppData\Local\Temp\ccq0yn5M.s 			page 3


  57 0000 08B5     		push	{r3, lr}
  58              		.cfi_def_cfa_offset 8
  59              		.cfi_offset 3, -8
  60              		.cfi_offset 14, -4
  59:Generated_Source\PSoC5/Motor_State.c ****     uint8 interruptState;
  60:Generated_Source\PSoC5/Motor_State.c ****     interruptState = CyEnterCriticalSection();
  61              		.loc 1 60 0
  62 0002 FFF7FEFF 		bl	CyEnterCriticalSection
  63              	.LVL0:
  61:Generated_Source\PSoC5/Motor_State.c ****     Motor_State_Status_Aux_Ctrl |= Motor_State_STATUS_INTR_ENBL;
  64              		.loc 1 61 0
  65 0006 044A     		ldr	r2, .L6
  66 0008 1378     		ldrb	r3, [r2]	@ zero_extendqisi2
  67 000a 43F01003 		orr	r3, r3, #16
  68 000e 1370     		strb	r3, [r2]
  62:Generated_Source\PSoC5/Motor_State.c ****     CyExitCriticalSection(interruptState);
  69              		.loc 1 62 0
  70 0010 FFF7FEFF 		bl	CyExitCriticalSection
  71              	.LVL1:
  72 0014 08BD     		pop	{r3, pc}
  73              	.L7:
  74 0016 00BF     		.align	2
  75              	.L6:
  76 0018 95650040 		.word	1073767829
  77              		.cfi_endproc
  78              	.LFE1:
  79              		.size	Motor_State_InterruptEnable, .-Motor_State_InterruptEnable
  80              		.section	.text.Motor_State_InterruptDisable,"ax",%progbits
  81              		.align	2
  82              		.global	Motor_State_InterruptDisable
  83              		.thumb
  84              		.thumb_func
  85              		.type	Motor_State_InterruptDisable, %function
  86              	Motor_State_InterruptDisable:
  87              	.LFB2:
  63:Generated_Source\PSoC5/Motor_State.c **** }
  64:Generated_Source\PSoC5/Motor_State.c **** 
  65:Generated_Source\PSoC5/Motor_State.c **** 
  66:Generated_Source\PSoC5/Motor_State.c **** /*******************************************************************************
  67:Generated_Source\PSoC5/Motor_State.c **** * Function Name: Motor_State_InterruptDisable
  68:Generated_Source\PSoC5/Motor_State.c **** ********************************************************************************
  69:Generated_Source\PSoC5/Motor_State.c **** *
  70:Generated_Source\PSoC5/Motor_State.c **** * Summary:
  71:Generated_Source\PSoC5/Motor_State.c **** *  Disables the Status Register interrupt.
  72:Generated_Source\PSoC5/Motor_State.c **** *
  73:Generated_Source\PSoC5/Motor_State.c **** * Parameters:
  74:Generated_Source\PSoC5/Motor_State.c **** *  None.
  75:Generated_Source\PSoC5/Motor_State.c **** *
  76:Generated_Source\PSoC5/Motor_State.c **** * Return:
  77:Generated_Source\PSoC5/Motor_State.c **** *  None.
  78:Generated_Source\PSoC5/Motor_State.c **** *
  79:Generated_Source\PSoC5/Motor_State.c **** *******************************************************************************/
  80:Generated_Source\PSoC5/Motor_State.c **** void Motor_State_InterruptDisable(void) 
  81:Generated_Source\PSoC5/Motor_State.c **** {
  88              		.loc 1 81 0
  89              		.cfi_startproc
  90              		@ args = 0, pretend = 0, frame = 0
ARM GAS  C:\Users\dmarsch\AppData\Local\Temp\ccq0yn5M.s 			page 4


  91              		@ frame_needed = 0, uses_anonymous_args = 0
  92 0000 08B5     		push	{r3, lr}
  93              		.cfi_def_cfa_offset 8
  94              		.cfi_offset 3, -8
  95              		.cfi_offset 14, -4
  82:Generated_Source\PSoC5/Motor_State.c ****     uint8 interruptState;
  83:Generated_Source\PSoC5/Motor_State.c ****     interruptState = CyEnterCriticalSection();
  96              		.loc 1 83 0
  97 0002 FFF7FEFF 		bl	CyEnterCriticalSection
  98              	.LVL2:
  84:Generated_Source\PSoC5/Motor_State.c ****     Motor_State_Status_Aux_Ctrl &= (uint8)(~Motor_State_STATUS_INTR_ENBL);
  99              		.loc 1 84 0
 100 0006 044A     		ldr	r2, .L10
 101 0008 1378     		ldrb	r3, [r2]	@ zero_extendqisi2
 102 000a 03F0EF03 		and	r3, r3, #239
 103 000e 1370     		strb	r3, [r2]
  85:Generated_Source\PSoC5/Motor_State.c ****     CyExitCriticalSection(interruptState);
 104              		.loc 1 85 0
 105 0010 FFF7FEFF 		bl	CyExitCriticalSection
 106              	.LVL3:
 107 0014 08BD     		pop	{r3, pc}
 108              	.L11:
 109 0016 00BF     		.align	2
 110              	.L10:
 111 0018 95650040 		.word	1073767829
 112              		.cfi_endproc
 113              	.LFE2:
 114              		.size	Motor_State_InterruptDisable, .-Motor_State_InterruptDisable
 115              		.section	.text.Motor_State_WriteMask,"ax",%progbits
 116              		.align	2
 117              		.global	Motor_State_WriteMask
 118              		.thumb
 119              		.thumb_func
 120              		.type	Motor_State_WriteMask, %function
 121              	Motor_State_WriteMask:
 122              	.LFB3:
  86:Generated_Source\PSoC5/Motor_State.c **** }
  87:Generated_Source\PSoC5/Motor_State.c **** 
  88:Generated_Source\PSoC5/Motor_State.c **** 
  89:Generated_Source\PSoC5/Motor_State.c **** /*******************************************************************************
  90:Generated_Source\PSoC5/Motor_State.c **** * Function Name: Motor_State_WriteMask
  91:Generated_Source\PSoC5/Motor_State.c **** ********************************************************************************
  92:Generated_Source\PSoC5/Motor_State.c **** *
  93:Generated_Source\PSoC5/Motor_State.c **** * Summary:
  94:Generated_Source\PSoC5/Motor_State.c **** *  Writes the current mask value assigned to the Status Register.
  95:Generated_Source\PSoC5/Motor_State.c **** *
  96:Generated_Source\PSoC5/Motor_State.c **** * Parameters:
  97:Generated_Source\PSoC5/Motor_State.c **** *  mask:  Value to write into the mask register.
  98:Generated_Source\PSoC5/Motor_State.c **** *
  99:Generated_Source\PSoC5/Motor_State.c **** * Return:
 100:Generated_Source\PSoC5/Motor_State.c **** *  None.
 101:Generated_Source\PSoC5/Motor_State.c **** *
 102:Generated_Source\PSoC5/Motor_State.c **** *******************************************************************************/
 103:Generated_Source\PSoC5/Motor_State.c **** void Motor_State_WriteMask(uint8 mask) 
 104:Generated_Source\PSoC5/Motor_State.c **** {
 123              		.loc 1 104 0
 124              		.cfi_startproc
ARM GAS  C:\Users\dmarsch\AppData\Local\Temp\ccq0yn5M.s 			page 5


 125              		@ args = 0, pretend = 0, frame = 0
 126              		@ frame_needed = 0, uses_anonymous_args = 0
 127              		@ link register save eliminated.
 128              	.LVL4:
 105:Generated_Source\PSoC5/Motor_State.c ****     #if(Motor_State_INPUTS < 8u)
 106:Generated_Source\PSoC5/Motor_State.c ****     	mask &= ((uint8)(1u << Motor_State_INPUTS) - 1u);
 129              		.loc 1 106 0
 130 0000 00F00F00 		and	r0, r0, #15
 131              	.LVL5:
 107:Generated_Source\PSoC5/Motor_State.c **** 	#endif /* End Motor_State_INPUTS < 8u */
 108:Generated_Source\PSoC5/Motor_State.c ****     Motor_State_Status_Mask = mask;
 132              		.loc 1 108 0
 133 0004 014B     		ldr	r3, .L13
 134 0006 1870     		strb	r0, [r3]
 135 0008 7047     		bx	lr
 136              	.L14:
 137 000a 00BF     		.align	2
 138              	.L13:
 139 000c 85650040 		.word	1073767813
 140              		.cfi_endproc
 141              	.LFE3:
 142              		.size	Motor_State_WriteMask, .-Motor_State_WriteMask
 143              		.section	.text.Motor_State_ReadMask,"ax",%progbits
 144              		.align	2
 145              		.global	Motor_State_ReadMask
 146              		.thumb
 147              		.thumb_func
 148              		.type	Motor_State_ReadMask, %function
 149              	Motor_State_ReadMask:
 150              	.LFB4:
 109:Generated_Source\PSoC5/Motor_State.c **** }
 110:Generated_Source\PSoC5/Motor_State.c **** 
 111:Generated_Source\PSoC5/Motor_State.c **** 
 112:Generated_Source\PSoC5/Motor_State.c **** /*******************************************************************************
 113:Generated_Source\PSoC5/Motor_State.c **** * Function Name: Motor_State_ReadMask
 114:Generated_Source\PSoC5/Motor_State.c **** ********************************************************************************
 115:Generated_Source\PSoC5/Motor_State.c **** *
 116:Generated_Source\PSoC5/Motor_State.c **** * Summary:
 117:Generated_Source\PSoC5/Motor_State.c **** *  Reads the current interrupt mask assigned to the Status Register.
 118:Generated_Source\PSoC5/Motor_State.c **** *
 119:Generated_Source\PSoC5/Motor_State.c **** * Parameters:
 120:Generated_Source\PSoC5/Motor_State.c **** *  None.
 121:Generated_Source\PSoC5/Motor_State.c **** *
 122:Generated_Source\PSoC5/Motor_State.c **** * Return:
 123:Generated_Source\PSoC5/Motor_State.c **** *  The value of the interrupt mask of the Status Register.
 124:Generated_Source\PSoC5/Motor_State.c **** *
 125:Generated_Source\PSoC5/Motor_State.c **** *******************************************************************************/
 126:Generated_Source\PSoC5/Motor_State.c **** uint8 Motor_State_ReadMask(void) 
 127:Generated_Source\PSoC5/Motor_State.c **** {
 151              		.loc 1 127 0
 152              		.cfi_startproc
 153              		@ args = 0, pretend = 0, frame = 0
 154              		@ frame_needed = 0, uses_anonymous_args = 0
 155              		@ link register save eliminated.
 128:Generated_Source\PSoC5/Motor_State.c ****     return Motor_State_Status_Mask;
 156              		.loc 1 128 0
 157 0000 014B     		ldr	r3, .L16
ARM GAS  C:\Users\dmarsch\AppData\Local\Temp\ccq0yn5M.s 			page 6


 158 0002 1878     		ldrb	r0, [r3]	@ zero_extendqisi2
 129:Generated_Source\PSoC5/Motor_State.c **** }
 159              		.loc 1 129 0
 160 0004 7047     		bx	lr
 161              	.L17:
 162 0006 00BF     		.align	2
 163              	.L16:
 164 0008 85650040 		.word	1073767813
 165              		.cfi_endproc
 166              	.LFE4:
 167              		.size	Motor_State_ReadMask, .-Motor_State_ReadMask
 168              		.text
 169              	.Letext0:
 170              		.file 2 "Generated_Source\\PSoC5\\cytypes.h"
 171              		.file 3 "Generated_Source\\PSoC5\\CyLib.h"
 172              		.section	.debug_info,"",%progbits
 173              	.Ldebug_info0:
 174 0000 7B010000 		.4byte	0x17b
 175 0004 0400     		.2byte	0x4
 176 0006 00000000 		.4byte	.Ldebug_abbrev0
 177 000a 04       		.byte	0x4
 178 000b 01       		.uleb128 0x1
 179 000c 54000000 		.4byte	.LASF24
 180 0010 0C       		.byte	0xc
 181 0011 12020000 		.4byte	.LASF25
 182 0015 55010000 		.4byte	.LASF26
 183 0019 00000000 		.4byte	.Ldebug_ranges0+0
 184 001d 00000000 		.4byte	0
 185 0021 00000000 		.4byte	.Ldebug_line0
 186 0025 02       		.uleb128 0x2
 187 0026 01       		.byte	0x1
 188 0027 06       		.byte	0x6
 189 0028 AD010000 		.4byte	.LASF0
 190 002c 02       		.uleb128 0x2
 191 002d 01       		.byte	0x1
 192 002e 08       		.byte	0x8
 193 002f 1B000000 		.4byte	.LASF1
 194 0033 02       		.uleb128 0x2
 195 0034 02       		.byte	0x2
 196 0035 05       		.byte	0x5
 197 0036 EC010000 		.4byte	.LASF2
 198 003a 02       		.uleb128 0x2
 199 003b 02       		.byte	0x2
 200 003c 07       		.byte	0x7
 201 003d 9A010000 		.4byte	.LASF3
 202 0041 02       		.uleb128 0x2
 203 0042 04       		.byte	0x4
 204 0043 05       		.byte	0x5
 205 0044 8A010000 		.4byte	.LASF4
 206 0048 02       		.uleb128 0x2
 207 0049 04       		.byte	0x4
 208 004a 07       		.byte	0x7
 209 004b E8000000 		.4byte	.LASF5
 210 004f 02       		.uleb128 0x2
 211 0050 08       		.byte	0x8
 212 0051 05       		.byte	0x5
 213 0052 00000000 		.4byte	.LASF6
ARM GAS  C:\Users\dmarsch\AppData\Local\Temp\ccq0yn5M.s 			page 7


 214 0056 02       		.uleb128 0x2
 215 0057 08       		.byte	0x8
 216 0058 07       		.byte	0x7
 217 0059 FA000000 		.4byte	.LASF7
 218 005d 03       		.uleb128 0x3
 219 005e 04       		.byte	0x4
 220 005f 05       		.byte	0x5
 221 0060 696E7400 		.ascii	"int\000"
 222 0064 02       		.uleb128 0x2
 223 0065 04       		.byte	0x4
 224 0066 07       		.byte	0x7
 225 0067 0E000000 		.4byte	.LASF8
 226 006b 04       		.uleb128 0x4
 227 006c E2000000 		.4byte	.LASF12
 228 0070 02       		.byte	0x2
 229 0071 E401     		.2byte	0x1e4
 230 0073 2C000000 		.4byte	0x2c
 231 0077 02       		.uleb128 0x2
 232 0078 04       		.byte	0x4
 233 0079 04       		.byte	0x4
 234 007a 11010000 		.4byte	.LASF9
 235 007e 02       		.uleb128 0x2
 236 007f 08       		.byte	0x8
 237 0080 04       		.byte	0x4
 238 0081 93010000 		.4byte	.LASF10
 239 0085 02       		.uleb128 0x2
 240 0086 01       		.byte	0x1
 241 0087 08       		.byte	0x8
 242 0088 85010000 		.4byte	.LASF11
 243 008c 04       		.uleb128 0x4
 244 008d F6010000 		.4byte	.LASF13
 245 0091 02       		.byte	0x2
 246 0092 8E02     		.2byte	0x28e
 247 0094 98000000 		.4byte	0x98
 248 0098 05       		.uleb128 0x5
 249 0099 6B000000 		.4byte	0x6b
 250 009d 02       		.uleb128 0x2
 251 009e 08       		.byte	0x8
 252 009f 04       		.byte	0x4
 253 00a0 E0010000 		.4byte	.LASF14
 254 00a4 02       		.uleb128 0x2
 255 00a5 04       		.byte	0x4
 256 00a6 07       		.byte	0x7
 257 00a7 37020000 		.4byte	.LASF15
 258 00ab 06       		.uleb128 0x6
 259 00ac B9010000 		.4byte	.LASF20
 260 00b0 01       		.byte	0x1
 261 00b1 25       		.byte	0x25
 262 00b2 6B000000 		.4byte	0x6b
 263 00b6 00000000 		.4byte	.LFB0
 264 00ba 0C000000 		.4byte	.LFE0-.LFB0
 265 00be 01       		.uleb128 0x1
 266 00bf 9C       		.byte	0x9c
 267 00c0 07       		.uleb128 0x7
 268 00c1 17010000 		.4byte	.LASF16
 269 00c5 01       		.byte	0x1
 270 00c6 39       		.byte	0x39
ARM GAS  C:\Users\dmarsch\AppData\Local\Temp\ccq0yn5M.s 			page 8


 271 00c7 00000000 		.4byte	.LFB1
 272 00cb 1C000000 		.4byte	.LFE1-.LFB1
 273 00cf 01       		.uleb128 0x1
 274 00d0 9C       		.byte	0x9c
 275 00d1 F7000000 		.4byte	0xf7
 276 00d5 08       		.uleb128 0x8
 277 00d6 40020000 		.4byte	.LASF18
 278 00da 01       		.byte	0x1
 279 00db 3B       		.byte	0x3b
 280 00dc 6B000000 		.4byte	0x6b
 281 00e0 00000000 		.4byte	.LLST0
 282 00e4 09       		.uleb128 0x9
 283 00e5 06000000 		.4byte	.LVL0
 284 00e9 68010000 		.4byte	0x168
 285 00ed 09       		.uleb128 0x9
 286 00ee 14000000 		.4byte	.LVL1
 287 00f2 73010000 		.4byte	0x173
 288 00f6 00       		.byte	0
 289 00f7 07       		.uleb128 0x7
 290 00f8 38010000 		.4byte	.LASF17
 291 00fc 01       		.byte	0x1
 292 00fd 50       		.byte	0x50
 293 00fe 00000000 		.4byte	.LFB2
 294 0102 1C000000 		.4byte	.LFE2-.LFB2
 295 0106 01       		.uleb128 0x1
 296 0107 9C       		.byte	0x9c
 297 0108 2E010000 		.4byte	0x12e
 298 010c 08       		.uleb128 0x8
 299 010d 40020000 		.4byte	.LASF18
 300 0111 01       		.byte	0x1
 301 0112 52       		.byte	0x52
 302 0113 6B000000 		.4byte	0x6b
 303 0117 13000000 		.4byte	.LLST1
 304 011b 09       		.uleb128 0x9
 305 011c 06000000 		.4byte	.LVL2
 306 0120 68010000 		.4byte	0x168
 307 0124 09       		.uleb128 0x9
 308 0125 14000000 		.4byte	.LVL3
 309 0129 73010000 		.4byte	0x173
 310 012d 00       		.byte	0
 311 012e 07       		.uleb128 0x7
 312 012f 3E000000 		.4byte	.LASF19
 313 0133 01       		.byte	0x1
 314 0134 67       		.byte	0x67
 315 0135 00000000 		.4byte	.LFB3
 316 0139 10000000 		.4byte	.LFE3-.LFB3
 317 013d 01       		.uleb128 0x1
 318 013e 9C       		.byte	0x9c
 319 013f 53010000 		.4byte	0x153
 320 0143 0A       		.uleb128 0xa
 321 0144 33010000 		.4byte	.LASF27
 322 0148 01       		.byte	0x1
 323 0149 67       		.byte	0x67
 324 014a 6B000000 		.4byte	0x6b
 325 014e 26000000 		.4byte	.LLST2
 326 0152 00       		.byte	0
 327 0153 06       		.uleb128 0x6
ARM GAS  C:\Users\dmarsch\AppData\Local\Temp\ccq0yn5M.s 			page 9


 328 0154 29000000 		.4byte	.LASF21
 329 0158 01       		.byte	0x1
 330 0159 7E       		.byte	0x7e
 331 015a 6B000000 		.4byte	0x6b
 332 015e 00000000 		.4byte	.LFB4
 333 0162 0C000000 		.4byte	.LFE4-.LFB4
 334 0166 01       		.uleb128 0x1
 335 0167 9C       		.byte	0x9c
 336 0168 0B       		.uleb128 0xb
 337 0169 FB010000 		.4byte	.LASF22
 338 016d FB010000 		.4byte	.LASF22
 339 0171 03       		.byte	0x3
 340 0172 7D       		.byte	0x7d
 341 0173 0B       		.uleb128 0xb
 342 0174 CA010000 		.4byte	.LASF23
 343 0178 CA010000 		.4byte	.LASF23
 344 017c 03       		.byte	0x3
 345 017d 7E       		.byte	0x7e
 346 017e 00       		.byte	0
 347              		.section	.debug_abbrev,"",%progbits
 348              	.Ldebug_abbrev0:
 349 0000 01       		.uleb128 0x1
 350 0001 11       		.uleb128 0x11
 351 0002 01       		.byte	0x1
 352 0003 25       		.uleb128 0x25
 353 0004 0E       		.uleb128 0xe
 354 0005 13       		.uleb128 0x13
 355 0006 0B       		.uleb128 0xb
 356 0007 03       		.uleb128 0x3
 357 0008 0E       		.uleb128 0xe
 358 0009 1B       		.uleb128 0x1b
 359 000a 0E       		.uleb128 0xe
 360 000b 55       		.uleb128 0x55
 361 000c 17       		.uleb128 0x17
 362 000d 11       		.uleb128 0x11
 363 000e 01       		.uleb128 0x1
 364 000f 10       		.uleb128 0x10
 365 0010 17       		.uleb128 0x17
 366 0011 00       		.byte	0
 367 0012 00       		.byte	0
 368 0013 02       		.uleb128 0x2
 369 0014 24       		.uleb128 0x24
 370 0015 00       		.byte	0
 371 0016 0B       		.uleb128 0xb
 372 0017 0B       		.uleb128 0xb
 373 0018 3E       		.uleb128 0x3e
 374 0019 0B       		.uleb128 0xb
 375 001a 03       		.uleb128 0x3
 376 001b 0E       		.uleb128 0xe
 377 001c 00       		.byte	0
 378 001d 00       		.byte	0
 379 001e 03       		.uleb128 0x3
 380 001f 24       		.uleb128 0x24
 381 0020 00       		.byte	0
 382 0021 0B       		.uleb128 0xb
 383 0022 0B       		.uleb128 0xb
 384 0023 3E       		.uleb128 0x3e
ARM GAS  C:\Users\dmarsch\AppData\Local\Temp\ccq0yn5M.s 			page 10


 385 0024 0B       		.uleb128 0xb
 386 0025 03       		.uleb128 0x3
 387 0026 08       		.uleb128 0x8
 388 0027 00       		.byte	0
 389 0028 00       		.byte	0
 390 0029 04       		.uleb128 0x4
 391 002a 16       		.uleb128 0x16
 392 002b 00       		.byte	0
 393 002c 03       		.uleb128 0x3
 394 002d 0E       		.uleb128 0xe
 395 002e 3A       		.uleb128 0x3a
 396 002f 0B       		.uleb128 0xb
 397 0030 3B       		.uleb128 0x3b
 398 0031 05       		.uleb128 0x5
 399 0032 49       		.uleb128 0x49
 400 0033 13       		.uleb128 0x13
 401 0034 00       		.byte	0
 402 0035 00       		.byte	0
 403 0036 05       		.uleb128 0x5
 404 0037 35       		.uleb128 0x35
 405 0038 00       		.byte	0
 406 0039 49       		.uleb128 0x49
 407 003a 13       		.uleb128 0x13
 408 003b 00       		.byte	0
 409 003c 00       		.byte	0
 410 003d 06       		.uleb128 0x6
 411 003e 2E       		.uleb128 0x2e
 412 003f 00       		.byte	0
 413 0040 3F       		.uleb128 0x3f
 414 0041 19       		.uleb128 0x19
 415 0042 03       		.uleb128 0x3
 416 0043 0E       		.uleb128 0xe
 417 0044 3A       		.uleb128 0x3a
 418 0045 0B       		.uleb128 0xb
 419 0046 3B       		.uleb128 0x3b
 420 0047 0B       		.uleb128 0xb
 421 0048 27       		.uleb128 0x27
 422 0049 19       		.uleb128 0x19
 423 004a 49       		.uleb128 0x49
 424 004b 13       		.uleb128 0x13
 425 004c 11       		.uleb128 0x11
 426 004d 01       		.uleb128 0x1
 427 004e 12       		.uleb128 0x12
 428 004f 06       		.uleb128 0x6
 429 0050 40       		.uleb128 0x40
 430 0051 18       		.uleb128 0x18
 431 0052 9742     		.uleb128 0x2117
 432 0054 19       		.uleb128 0x19
 433 0055 00       		.byte	0
 434 0056 00       		.byte	0
 435 0057 07       		.uleb128 0x7
 436 0058 2E       		.uleb128 0x2e
 437 0059 01       		.byte	0x1
 438 005a 3F       		.uleb128 0x3f
 439 005b 19       		.uleb128 0x19
 440 005c 03       		.uleb128 0x3
 441 005d 0E       		.uleb128 0xe
ARM GAS  C:\Users\dmarsch\AppData\Local\Temp\ccq0yn5M.s 			page 11


 442 005e 3A       		.uleb128 0x3a
 443 005f 0B       		.uleb128 0xb
 444 0060 3B       		.uleb128 0x3b
 445 0061 0B       		.uleb128 0xb
 446 0062 27       		.uleb128 0x27
 447 0063 19       		.uleb128 0x19
 448 0064 11       		.uleb128 0x11
 449 0065 01       		.uleb128 0x1
 450 0066 12       		.uleb128 0x12
 451 0067 06       		.uleb128 0x6
 452 0068 40       		.uleb128 0x40
 453 0069 18       		.uleb128 0x18
 454 006a 9742     		.uleb128 0x2117
 455 006c 19       		.uleb128 0x19
 456 006d 01       		.uleb128 0x1
 457 006e 13       		.uleb128 0x13
 458 006f 00       		.byte	0
 459 0070 00       		.byte	0
 460 0071 08       		.uleb128 0x8
 461 0072 34       		.uleb128 0x34
 462 0073 00       		.byte	0
 463 0074 03       		.uleb128 0x3
 464 0075 0E       		.uleb128 0xe
 465 0076 3A       		.uleb128 0x3a
 466 0077 0B       		.uleb128 0xb
 467 0078 3B       		.uleb128 0x3b
 468 0079 0B       		.uleb128 0xb
 469 007a 49       		.uleb128 0x49
 470 007b 13       		.uleb128 0x13
 471 007c 02       		.uleb128 0x2
 472 007d 17       		.uleb128 0x17
 473 007e 00       		.byte	0
 474 007f 00       		.byte	0
 475 0080 09       		.uleb128 0x9
 476 0081 898201   		.uleb128 0x4109
 477 0084 00       		.byte	0
 478 0085 11       		.uleb128 0x11
 479 0086 01       		.uleb128 0x1
 480 0087 31       		.uleb128 0x31
 481 0088 13       		.uleb128 0x13
 482 0089 00       		.byte	0
 483 008a 00       		.byte	0
 484 008b 0A       		.uleb128 0xa
 485 008c 05       		.uleb128 0x5
 486 008d 00       		.byte	0
 487 008e 03       		.uleb128 0x3
 488 008f 0E       		.uleb128 0xe
 489 0090 3A       		.uleb128 0x3a
 490 0091 0B       		.uleb128 0xb
 491 0092 3B       		.uleb128 0x3b
 492 0093 0B       		.uleb128 0xb
 493 0094 49       		.uleb128 0x49
 494 0095 13       		.uleb128 0x13
 495 0096 02       		.uleb128 0x2
 496 0097 17       		.uleb128 0x17
 497 0098 00       		.byte	0
 498 0099 00       		.byte	0
ARM GAS  C:\Users\dmarsch\AppData\Local\Temp\ccq0yn5M.s 			page 12


 499 009a 0B       		.uleb128 0xb
 500 009b 2E       		.uleb128 0x2e
 501 009c 00       		.byte	0
 502 009d 3F       		.uleb128 0x3f
 503 009e 19       		.uleb128 0x19
 504 009f 3C       		.uleb128 0x3c
 505 00a0 19       		.uleb128 0x19
 506 00a1 6E       		.uleb128 0x6e
 507 00a2 0E       		.uleb128 0xe
 508 00a3 03       		.uleb128 0x3
 509 00a4 0E       		.uleb128 0xe
 510 00a5 3A       		.uleb128 0x3a
 511 00a6 0B       		.uleb128 0xb
 512 00a7 3B       		.uleb128 0x3b
 513 00a8 0B       		.uleb128 0xb
 514 00a9 00       		.byte	0
 515 00aa 00       		.byte	0
 516 00ab 00       		.byte	0
 517              		.section	.debug_loc,"",%progbits
 518              	.Ldebug_loc0:
 519              	.LLST0:
 520 0000 06000000 		.4byte	.LVL0
 521 0004 13000000 		.4byte	.LVL1-1
 522 0008 0100     		.2byte	0x1
 523 000a 50       		.byte	0x50
 524 000b 00000000 		.4byte	0
 525 000f 00000000 		.4byte	0
 526              	.LLST1:
 527 0013 06000000 		.4byte	.LVL2
 528 0017 13000000 		.4byte	.LVL3-1
 529 001b 0100     		.2byte	0x1
 530 001d 50       		.byte	0x50
 531 001e 00000000 		.4byte	0
 532 0022 00000000 		.4byte	0
 533              	.LLST2:
 534 0026 00000000 		.4byte	.LVL4
 535 002a 04000000 		.4byte	.LVL5
 536 002e 0100     		.2byte	0x1
 537 0030 50       		.byte	0x50
 538 0031 04000000 		.4byte	.LVL5
 539 0035 10000000 		.4byte	.LFE3
 540 0039 0100     		.2byte	0x1
 541 003b 50       		.byte	0x50
 542 003c 00000000 		.4byte	0
 543 0040 00000000 		.4byte	0
 544              		.section	.debug_aranges,"",%progbits
 545 0000 3C000000 		.4byte	0x3c
 546 0004 0200     		.2byte	0x2
 547 0006 00000000 		.4byte	.Ldebug_info0
 548 000a 04       		.byte	0x4
 549 000b 00       		.byte	0
 550 000c 0000     		.2byte	0
 551 000e 0000     		.2byte	0
 552 0010 00000000 		.4byte	.LFB0
 553 0014 0C000000 		.4byte	.LFE0-.LFB0
 554 0018 00000000 		.4byte	.LFB1
 555 001c 1C000000 		.4byte	.LFE1-.LFB1
ARM GAS  C:\Users\dmarsch\AppData\Local\Temp\ccq0yn5M.s 			page 13


 556 0020 00000000 		.4byte	.LFB2
 557 0024 1C000000 		.4byte	.LFE2-.LFB2
 558 0028 00000000 		.4byte	.LFB3
 559 002c 10000000 		.4byte	.LFE3-.LFB3
 560 0030 00000000 		.4byte	.LFB4
 561 0034 0C000000 		.4byte	.LFE4-.LFB4
 562 0038 00000000 		.4byte	0
 563 003c 00000000 		.4byte	0
 564              		.section	.debug_ranges,"",%progbits
 565              	.Ldebug_ranges0:
 566 0000 00000000 		.4byte	.LFB0
 567 0004 0C000000 		.4byte	.LFE0
 568 0008 00000000 		.4byte	.LFB1
 569 000c 1C000000 		.4byte	.LFE1
 570 0010 00000000 		.4byte	.LFB2
 571 0014 1C000000 		.4byte	.LFE2
 572 0018 00000000 		.4byte	.LFB3
 573 001c 10000000 		.4byte	.LFE3
 574 0020 00000000 		.4byte	.LFB4
 575 0024 0C000000 		.4byte	.LFE4
 576 0028 00000000 		.4byte	0
 577 002c 00000000 		.4byte	0
 578              		.section	.debug_line,"",%progbits
 579              	.Ldebug_line0:
 580 0000 B3000000 		.section	.debug_str,"MS",%progbits,1
 580      02005300 
 580      00000201 
 580      FB0E0D00 
 580      01010101 
 581              	.LASF6:
 582 0000 6C6F6E67 		.ascii	"long long int\000"
 582      206C6F6E 
 582      6720696E 
 582      7400
 583              	.LASF8:
 584 000e 756E7369 		.ascii	"unsigned int\000"
 584      676E6564 
 584      20696E74 
 584      00
 585              	.LASF1:
 586 001b 756E7369 		.ascii	"unsigned char\000"
 586      676E6564 
 586      20636861 
 586      7200
 587              	.LASF21:
 588 0029 4D6F746F 		.ascii	"Motor_State_ReadMask\000"
 588      725F5374 
 588      6174655F 
 588      52656164 
 588      4D61736B 
 589              	.LASF19:
 590 003e 4D6F746F 		.ascii	"Motor_State_WriteMask\000"
 590      725F5374 
 590      6174655F 
 590      57726974 
 590      654D6173 
 591              	.LASF24:
ARM GAS  C:\Users\dmarsch\AppData\Local\Temp\ccq0yn5M.s 			page 14


 592 0054 474E5520 		.ascii	"GNU C11 5.4.1 20160609 (release) [ARM/embedded-5-br"
 592      43313120 
 592      352E342E 
 592      31203230 
 592      31363036 
 593 0087 616E6368 		.ascii	"anch revision 237715] -mcpu=cortex-m3 -mthumb -g -O"
 593      20726576 
 593      6973696F 
 593      6E203233 
 593      37373135 
 594 00ba 67202D66 		.ascii	"g -ffunction-sections -ffat-lto-objects\000"
 594      66756E63 
 594      74696F6E 
 594      2D736563 
 594      74696F6E 
 595              	.LASF12:
 596 00e2 75696E74 		.ascii	"uint8\000"
 596      3800
 597              	.LASF5:
 598 00e8 6C6F6E67 		.ascii	"long unsigned int\000"
 598      20756E73 
 598      69676E65 
 598      6420696E 
 598      7400
 599              	.LASF7:
 600 00fa 6C6F6E67 		.ascii	"long long unsigned int\000"
 600      206C6F6E 
 600      6720756E 
 600      7369676E 
 600      65642069 
 601              	.LASF9:
 602 0111 666C6F61 		.ascii	"float\000"
 602      7400
 603              	.LASF16:
 604 0117 4D6F746F 		.ascii	"Motor_State_InterruptEnable\000"
 604      725F5374 
 604      6174655F 
 604      496E7465 
 604      72727570 
 605              	.LASF27:
 606 0133 6D61736B 		.ascii	"mask\000"
 606      00
 607              	.LASF17:
 608 0138 4D6F746F 		.ascii	"Motor_State_InterruptDisable\000"
 608      725F5374 
 608      6174655F 
 608      496E7465 
 608      72727570 
 609              	.LASF26:
 610 0155 433A5C55 		.ascii	"C:\\Users\\dmarsch\\Documents\\lab8\\lab8\\lab8.cyd"
 610      73657273 
 610      5C646D61 
 610      72736368 
 610      5C446F63 
 611 0182 736E00   		.ascii	"sn\000"
 612              	.LASF11:
 613 0185 63686172 		.ascii	"char\000"
ARM GAS  C:\Users\dmarsch\AppData\Local\Temp\ccq0yn5M.s 			page 15


 613      00
 614              	.LASF4:
 615 018a 6C6F6E67 		.ascii	"long int\000"
 615      20696E74 
 615      00
 616              	.LASF10:
 617 0193 646F7562 		.ascii	"double\000"
 617      6C6500
 618              	.LASF3:
 619 019a 73686F72 		.ascii	"short unsigned int\000"
 619      7420756E 
 619      7369676E 
 619      65642069 
 619      6E7400
 620              	.LASF0:
 621 01ad 7369676E 		.ascii	"signed char\000"
 621      65642063 
 621      68617200 
 622              	.LASF20:
 623 01b9 4D6F746F 		.ascii	"Motor_State_Read\000"
 623      725F5374 
 623      6174655F 
 623      52656164 
 623      00
 624              	.LASF23:
 625 01ca 43794578 		.ascii	"CyExitCriticalSection\000"
 625      69744372 
 625      69746963 
 625      616C5365 
 625      6374696F 
 626              	.LASF14:
 627 01e0 6C6F6E67 		.ascii	"long double\000"
 627      20646F75 
 627      626C6500 
 628              	.LASF2:
 629 01ec 73686F72 		.ascii	"short int\000"
 629      7420696E 
 629      7400
 630              	.LASF13:
 631 01f6 72656738 		.ascii	"reg8\000"
 631      00
 632              	.LASF22:
 633 01fb 4379456E 		.ascii	"CyEnterCriticalSection\000"
 633      74657243 
 633      72697469 
 633      63616C53 
 633      65637469 
 634              	.LASF25:
 635 0212 47656E65 		.ascii	"Generated_Source\\PSoC5\\Motor_State.c\000"
 635      72617465 
 635      645F536F 
 635      75726365 
 635      5C50536F 
 636              	.LASF15:
 637 0237 73697A65 		.ascii	"sizetype\000"
 637      74797065 
 637      00
ARM GAS  C:\Users\dmarsch\AppData\Local\Temp\ccq0yn5M.s 			page 16


 638              	.LASF18:
 639 0240 696E7465 		.ascii	"interruptState\000"
 639      72727570 
 639      74537461 
 639      746500
 640              		.ident	"GCC: (GNU Tools for ARM Embedded Processors) 5.4.1 20160609 (release) [ARM/embedded-5-bran
