:20000000025200402C1401402F1501400B49014002500140180619051E01300136015804FF
:200020005F01848A85B08645874C898C8B708FFC9220988C99549A439BA89C439E8C9F0257
:20004000A483A64CA701A845A9A8AA8AAB54AC10AD4CAFB0B01FB13CB220B302B4D6B501D7
:20006000B7D8B822BE51BF41D804D904DB04DF01050409400D200E811540171419801A81CE
:200080001DC41E801F6824042568261427502D802F2837503C043E505C025D805E28641066
:2000A0006540662067806D406E506F04824086208740881089808C068D0CC020C2D1C4E03E
:2000C000CA70CC30CE70D6F0D8F0E210E650500456205B405F2083408C048E208F20D4E0AE
:2000E000D620E68010011A01004B4B0000000000000F0F000F0000000000000000000000B5
:00000001FF
