Loading plugins phase: Elapsed time ==> 0s.208ms
<CYPRESSTAG name="CyDsfit arguments...">
cydsfit arguments: -.fdsnotice -.fdswarpdepfile=warp_dependencies.txt -.fdselabdepfile=elab_dependencies.txt -.fdsbldfile=generated_files.txt -.fdsreffile=referenced_files.txt -p C:\Users\dmarsch\Documents\lab8\Part 1\lab8.cydsn\lab8.cyprj -d CY8C5888LTI-LP097 -s C:\Users\dmarsch\Documents\lab8\Part 1\lab8.cydsn\Generated_Source\PSoC5 -- -yv2 -q10 -ygs -o0 -v3 -.fftcfgtype=LE
</CYPRESSTAG>
<CYPRESSTAG name="Design elaboration results...">
</CYPRESSTAG>
Elaboration phase: Elapsed time ==> 0s.883ms
<CYPRESSTAG name="HDL generation results...">
</CYPRESSTAG>
HDL generation phase: Elapsed time ==> 0s.035ms
<CYPRESSTAG name="Synthesis results...">

     | | | | | | |
   _________________
  -|               |-
  -|               |-
  -|               |-
  -|    CYPRESS    |-
  -|               |-
  -|               |-   Warp Verilog Synthesis Compiler: Version 6.3 IR 41
  -|               |-   Copyright (C) 1991-2001 Cypress Semiconductor
   |_______________|
     | | | | | | |

======================================================================
Compiling:  lab8.v
Program  :   C:\Program Files (x86)\Cypress\PSoC Creator\4.2\PSoC Creator\warp\bin\warp.exe
Options  :    -yv2 -q10 -ygs -o0 -v3 -.fftcfgtype=LE -ya -.fftprj=C:\Users\dmarsch\Documents\lab8\Part 1\lab8.cydsn\lab8.cyprj -dcpsoc3 lab8.v -verilog
======================================================================

======================================================================
Compiling:  lab8.v
Program  :   C:\Program Files (x86)\Cypress\PSoC Creator\4.2\PSoC Creator\warp\bin\warp.exe
Options  :    -yv2 -q10 -ygs -o0 -v3 -.fftcfgtype=LE -ya -.fftprj=C:\Users\dmarsch\Documents\lab8\Part 1\lab8.cydsn\lab8.cyprj -dcpsoc3 lab8.v -verilog
======================================================================

======================================================================
Compiling:  lab8.v
Program  :   vlogfe
Options  :    -yv2 -q10 -ygs -o0 -v3 -.fftcfgtype=LE -ya -.fftprj=C:\Users\dmarsch\Documents\lab8\Part 1\lab8.cydsn\lab8.cyprj -dcpsoc3 -verilog lab8.v
======================================================================

vlogfe V6.3 IR 41:  Verilog parser
Thu Oct 24 18:47:14 2019


======================================================================
Compiling:  lab8.v
Program  :   vpp
Options  :    -yv2 -q10 lab8.v
======================================================================

vpp V6.3 IR 41:  Verilog Pre-Processor
Thu Oct 24 18:47:14 2019

Flattening file 'C:\Users\dmarsch\Documents\lab8\Part 1\lab8.cydsn\Stepper_Controller\Stepper_Controller.v'
Flattening file 'C:\Program Files (x86)\Cypress\PSoC Creator\4.2\PSoC Creator\warp\lib\common\cypress.v'
Flattening file 'C:\Program Files (x86)\Cypress\PSoC Creator\4.2\PSoC Creator\warp\lib\common\cy_psoc3_inc.v'
Flattening file 'C:\Program Files (x86)\Cypress\PSoC Creator\4.2\PSoC Creator\psoc\content\CyPrimitives\cyprimitives.cylib\CyControlReg_v1_80\CyControlReg_v1_80.v'
Flattening file 'C:\Program Files (x86)\Cypress\PSoC Creator\4.2\PSoC Creator\warp\lib\common\cypress.v'
Flattening file 'C:\Program Files (x86)\Cypress\PSoC Creator\4.2\PSoC Creator\psoc\content\CyPrimitives\cyprimitives.cylib\CyStatusReg_v1_90\CyStatusReg_v1_90.v'
Flattening file 'C:\Program Files (x86)\Cypress\PSoC Creator\4.2\PSoC Creator\warp\lib\common\cypress.v'

vpp:  No errors.

Library 'work' => directory 'lcpsoc3'
General_symbol_table
General_symbol_table
Linking 'C:\Program Files (x86)\Cypress\PSoC Creator\4.2\PSoC Creator\warp\lib\common\std.vhd'.
Linking 'C:\Program Files (x86)\Cypress\PSoC Creator\4.2\PSoC Creator\warp\lib\common\cypress.vhd'.
Linking 'C:\Program Files (x86)\Cypress\PSoC Creator\4.2\PSoC Creator\warp\lib\common\work\cypress.vif'.
Linking 'C:\Program Files (x86)\Cypress\PSoC Creator\4.2\PSoC Creator\warp\lib\ieee\work\stdlogic.vif'.
Linking 'C:\Program Files (x86)\Cypress\PSoC Creator\4.2\PSoC Creator\warp\lib\common\stdlogic\lpmpkg.vif'.
Linking 'C:\Program Files (x86)\Cypress\PSoC Creator\4.2\PSoC Creator\warp\lib\common\stdlogic\rtlpkg.vif'.
Linking 'C:\Program Files (x86)\Cypress\PSoC Creator\4.2\PSoC Creator\warp\lib\common\stdlogic\mod_cnst.vif'.
Linking 'C:\Program Files (x86)\Cypress\PSoC Creator\4.2\PSoC Creator\warp\lib\common\stdlogic\mod_mthv.vif'.
Linking 'C:\Program Files (x86)\Cypress\PSoC Creator\4.2\PSoC Creator\warp\lib\common\stdlogic\mod_genv.vif'.
Using control file 'lab8.ctl'.

vlogfe:  No errors.


======================================================================
Compiling:  lab8.v
Program  :   tovif
Options  :    -yv2 -q10 -ygs -o0 -v3 -.fftcfgtype=LE -ya -.fftprj=C:\Users\dmarsch\Documents\lab8\Part 1\lab8.cydsn\lab8.cyprj -dcpsoc3 -verilog lab8.v
======================================================================

tovif V6.3 IR 41:  High-level synthesis
Thu Oct 24 18:47:14 2019

Linking 'C:\Program Files (x86)\Cypress\PSoC Creator\4.2\PSoC Creator\warp\lib\common\std.vhd'.
Linking 'C:\Program Files (x86)\Cypress\PSoC Creator\4.2\PSoC Creator\warp\lib\common\cypress.vhd'.
Linking 'C:\Program Files (x86)\Cypress\PSoC Creator\4.2\PSoC Creator\warp\lib\common\work\cypress.vif'.
Linking 'C:\Program Files (x86)\Cypress\PSoC Creator\4.2\PSoC Creator\warp\lib\ieee\work\stdlogic.vif'.
Linking 'C:\Program Files (x86)\Cypress\PSoC Creator\4.2\PSoC Creator\warp\lib\common\stdlogic\lpmpkg.vif'.
Linking 'C:\Program Files (x86)\Cypress\PSoC Creator\4.2\PSoC Creator\warp\lib\common\stdlogic\rtlpkg.vif'.
Linking 'C:\Program Files (x86)\Cypress\PSoC Creator\4.2\PSoC Creator\warp\lib\common\stdlogic\mod_cnst.vif'.
Linking 'C:\Program Files (x86)\Cypress\PSoC Creator\4.2\PSoC Creator\warp\lib\common\stdlogic\mod_mthv.vif'.
Linking 'C:\Program Files (x86)\Cypress\PSoC Creator\4.2\PSoC Creator\warp\lib\common\stdlogic\mod_genv.vif'.
Linking 'C:\Users\dmarsch\Documents\lab8\Part 1\lab8.cydsn\codegentemp\lab8.ctl'.
Linking 'C:\Users\dmarsch\Documents\lab8\Part 1\lab8.cydsn\Stepper_Controller\Stepper_Controller.v'.
Linking 'C:\Program Files (x86)\Cypress\PSoC Creator\4.2\PSoC Creator\warp\lib\common\cypress.v'.
Linking 'C:\Program Files (x86)\Cypress\PSoC Creator\4.2\PSoC Creator\warp\lib\common\cy_psoc3_inc.v'.
Linking 'C:\Users\dmarsch\Documents\lab8\Part 1\lab8.cydsn\codegentemp\lab8.v'.
Linking 'C:\Program Files (x86)\Cypress\PSoC Creator\4.2\PSoC Creator\psoc\content\CyPrimitives\cyprimitives.cylib\CyControlReg_v1_80\CyControlReg_v1_80.v'.
Linking 'C:\Program Files (x86)\Cypress\PSoC Creator\4.2\PSoC Creator\psoc\content\CyPrimitives\cyprimitives.cylib\CyStatusReg_v1_90\CyStatusReg_v1_90.v'.

tovif:  No errors.


======================================================================
Compiling:  lab8.v
Program  :   topld
Options  :    -yv2 -q10 -ygs -o0 -v3 -.fftcfgtype=LE -ya -.fftprj=C:\Users\dmarsch\Documents\lab8\Part 1\lab8.cydsn\lab8.cyprj -dcpsoc3 -verilog lab8.v
======================================================================

topld V6.3 IR 41:  Synthesis and optimization
Thu Oct 24 18:47:15 2019

Linking 'C:\Program Files (x86)\Cypress\PSoC Creator\4.2\PSoC Creator\warp\lib\common\std.vhd'.
Linking 'C:\Program Files (x86)\Cypress\PSoC Creator\4.2\PSoC Creator\warp\lib\common\cypress.vhd'.
Linking 'C:\Program Files (x86)\Cypress\PSoC Creator\4.2\PSoC Creator\warp\lib\common\work\cypress.vif'.
Linking 'C:\Program Files (x86)\Cypress\PSoC Creator\4.2\PSoC Creator\warp\lib\ieee\work\stdlogic.vif'.
Linking 'C:\Program Files (x86)\Cypress\PSoC Creator\4.2\PSoC Creator\warp\lib\common\stdlogic\lpmpkg.vif'.
Linking 'C:\Program Files (x86)\Cypress\PSoC Creator\4.2\PSoC Creator\warp\lib\common\stdlogic\rtlpkg.vif'.
Linking 'C:\Program Files (x86)\Cypress\PSoC Creator\4.2\PSoC Creator\warp\lib\common\stdlogic\mod_cnst.vif'.
Linking 'C:\Program Files (x86)\Cypress\PSoC Creator\4.2\PSoC Creator\warp\lib\common\stdlogic\mod_mthv.vif'.
Linking 'C:\Program Files (x86)\Cypress\PSoC Creator\4.2\PSoC Creator\warp\lib\common\stdlogic\mod_genv.vif'.
Linking 'C:\Users\dmarsch\Documents\lab8\Part 1\lab8.cydsn\codegentemp\lab8.ctl'.
Linking 'C:\Users\dmarsch\Documents\lab8\Part 1\lab8.cydsn\Stepper_Controller\Stepper_Controller.v'.
Linking 'C:\Program Files (x86)\Cypress\PSoC Creator\4.2\PSoC Creator\warp\lib\common\cypress.v'.
Linking 'C:\Program Files (x86)\Cypress\PSoC Creator\4.2\PSoC Creator\warp\lib\common\cy_psoc3_inc.v'.
Linking 'C:\Users\dmarsch\Documents\lab8\Part 1\lab8.cydsn\codegentemp\lab8.v'.
Linking 'C:\Program Files (x86)\Cypress\PSoC Creator\4.2\PSoC Creator\psoc\content\CyPrimitives\cyprimitives.cylib\CyControlReg_v1_80\CyControlReg_v1_80.v'.
Linking 'C:\Program Files (x86)\Cypress\PSoC Creator\4.2\PSoC Creator\psoc\content\CyPrimitives\cyprimitives.cylib\CyStatusReg_v1_90\CyStatusReg_v1_90.v'.
Linking 'C:\Program Files (x86)\Cypress\PSoC Creator\4.2\PSoC Creator\warp\lib\lcpsoc3\stdlogic\cpsoc3.vif'.

----------------------------------------------------------
Detecting unused logic.
----------------------------------------------------------
    User names
	Net_9
	Net_10
	Net_12
	Net_13
	Net_14
	Net_15


Deleted 6 User equations/components.
Deleted 0 Synthesized equations/components.

------------------------------------------------------
Alias Detection
------------------------------------------------------
Aliasing \Motor_CTL:rst\ to \Motor_CTL:clk\
Aliasing tmpOE__Motor_net_2 to tmpOE__Motor_net_3
Aliasing tmpOE__Motor_net_1 to tmpOE__Motor_net_3
Aliasing tmpOE__Motor_net_0 to tmpOE__Motor_net_3
Aliasing zero to \Motor_CTL:clk\
Aliasing one to tmpOE__Motor_net_3
Aliasing \Motor_State:status_4\ to \Motor_CTL:clk\
Aliasing \Motor_State:status_5\ to \Motor_CTL:clk\
Aliasing \Motor_State:status_6\ to \Motor_CTL:clk\
Aliasing \Motor_State:status_7\ to \Motor_CTL:clk\
Aliasing tmpOE__LED_net_0 to tmpOE__Motor_net_3
Removing Rhs of wire Net_41[0] = \Stepper_Controller_1:count_0\[1]
Removing Rhs of wire Net_18[2] = \Stepper_Controller_1:count_1\[3]
Removing Rhs of wire Net_20[4] = \Stepper_Controller_1:count_2\[5]
Removing Rhs of wire Net_21[6] = \Stepper_Controller_1:count_3\[7]
Removing Rhs of wire Net_1[9] = \Motor_CTL:control_out_0\[13]
Removing Rhs of wire Net_1[9] = \Motor_CTL:control_0\[35]
Removing Rhs of wire Net_2[10] = \Motor_CTL:control_out_1\[14]
Removing Rhs of wire Net_2[10] = \Motor_CTL:control_1\[34]
Removing Lhs of wire \Motor_CTL:rst\[12] = \Motor_CTL:clk\[11]
Removing Lhs of wire tmpOE__Motor_net_2[38] = tmpOE__Motor_net_3[37]
Removing Lhs of wire tmpOE__Motor_net_1[39] = tmpOE__Motor_net_3[37]
Removing Lhs of wire tmpOE__Motor_net_0[40] = tmpOE__Motor_net_3[37]
Removing Rhs of wire zero[50] = \Motor_CTL:clk\[11]
Removing Lhs of wire one[51] = tmpOE__Motor_net_3[37]
Removing Lhs of wire \Motor_State:status_0\[53] = Net_41[0]
Removing Lhs of wire \Motor_State:status_1\[54] = Net_18[2]
Removing Lhs of wire \Motor_State:status_2\[55] = Net_20[4]
Removing Lhs of wire \Motor_State:status_3\[56] = Net_21[6]
Removing Lhs of wire \Motor_State:status_4\[57] = zero[50]
Removing Lhs of wire \Motor_State:status_5\[58] = zero[50]
Removing Lhs of wire \Motor_State:status_6\[59] = zero[50]
Removing Lhs of wire \Motor_State:status_7\[60] = zero[50]
Removing Lhs of wire tmpOE__LED_net_0[66] = tmpOE__Motor_net_3[37]

------------------------------------------------------
Aliased 0 equations, 23 wires.
------------------------------------------------------

topld:  No errors.

CYPRESS_DIR    : C:\Program Files (x86)\Cypress\PSoC Creator\4.2\PSoC Creator\warp
Warp Program   : C:\Program Files (x86)\Cypress\PSoC Creator\4.2\PSoC Creator\warp\bin\warp.exe
Warp Arguments : -yv2 -q10 -ygs -o0 -v3 -.fftcfgtype=LE -ya "-.fftprj=C:\Users\dmarsch\Documents\lab8\Part 1\lab8.cydsn\lab8.cyprj" -dcpsoc3 lab8.v -verilog
</CYPRESSTAG>
Warp synthesis phase: Elapsed time ==> 1s.238ms
<CYPRESSTAG name="Fitter results...">
<CYPRESSTAG name="Fitter startup details...">
cyp3fit: V4.2.0.641, Family: PSoC3, Started at: Thursday, 24 October 2019 18:47:15
Options: -yv2 -q10 -ygs -o0 -v3 -.fftcfgtype=LE -ya -.fftprj=C:\Users\dmarsch\Documents\lab8\Part 1\lab8.cydsn\lab8.cyprj -d CY8C5888LTI-LP097 lab8.v -verilog
</CYPRESSTAG>
<CYPRESSTAG name="Design parsing">
Design parsing phase: Elapsed time ==> 0s.011ms
</CYPRESSTAG>
<CYPRESSTAG name="Tech Mapping">
<CYPRESSTAG name="Initial Mapping" icon="FILE_RPT_TECHM">
Assigning clock Reg_CLK to clock BUS_CLK because it is a pass-through
<CYPRESSTAG name="Global Clock Selection" icon="FILE_RPT_TECHM">
    Digital Clock 0: Automatic-assigning  clock 'CLK'. Fanout=4, Signal=Net_3
</CYPRESSTAG>
<CYPRESSTAG name="UDB Clock/Enable Remapping Results">
</CYPRESSTAG>
<CYPRESSTAG name="Duplicate Macrocell detection">
</CYPRESSTAG>
</CYPRESSTAG>
<CYPRESSTAG name="Duplicate Macrocell detection">
</CYPRESSTAG>
<CYPRESSTAG name="Design Equations" icon="FILE_RPT_EQUATION">

------------------------------------------------------------
Design Equations
------------------------------------------------------------
    <CYPRESSTAG name="Pin listing">

    ------------------------------------------------------------
    Pin listing
    ------------------------------------------------------------

    Pin : Name = Motor(0)
        Attributes:
            In Group/Port: True
            In Sync Option: AUTO
            Out Sync Option: NOSYNC
            Interrupt generated: False
            Interrupt mode: NONE
            Drive mode: CMOS_OUT
            VTrip: EITHER
            Slew: FAST
            Input Sync needed: False
            Output Sync needed: False
            SC shield enabled: False
            POR State: ANY
            LCD Mode: COMMON
            Register Mode: RegComb
            CaSense Mode: NEITHER
            Treat as pin: False
            Is OE Registered: False
            Uses Analog: False
            Can contain Digital: True
            Is SIO: False
            SIO Output Buf: NONREGULATED
            SIO Input Buf: SINGLE_ENDED
            SIO HiFreq: LOW
            SIO Hyst: DISABLED
            SIO Vtrip: MULTIPLIER_0_5
            SIO Multiplier Index: 0
            SIO RefSel: VCC_IO
            Required Capabilities: DIGITAL, ROUTABLE
            Initial Value: 0
            IO Voltage: 0
        PORT MAP (
            pa_out => Motor(0)__PA ,
            pin_input => Net_41 ,
            pad => Motor(0)_PAD );
        Properties:
        {
        }

    Pin : Name = Motor(1)
        Attributes:
            In Group/Port: True
            In Sync Option: AUTO
            Out Sync Option: NOSYNC
            Interrupt generated: False
            Interrupt mode: NONE
            Drive mode: CMOS_OUT
            VTrip: EITHER
            Slew: FAST
            Input Sync needed: False
            Output Sync needed: False
            SC shield enabled: False
            POR State: ANY
            LCD Mode: COMMON
            Register Mode: RegComb
            CaSense Mode: NEITHER
            Treat as pin: False
            Is OE Registered: False
            Uses Analog: False
            Can contain Digital: True
            Is SIO: False
            SIO Output Buf: NONREGULATED
            SIO Input Buf: SINGLE_ENDED
            SIO HiFreq: LOW
            SIO Hyst: DISABLED
            SIO Vtrip: MULTIPLIER_0_5
            SIO Multiplier Index: 0
            SIO RefSel: VCC_IO
            Required Capabilities: DIGITAL, ROUTABLE
            Initial Value: 0
            IO Voltage: 0
        PORT MAP (
            pa_out => Motor(1)__PA ,
            pin_input => Net_18 ,
            pad => Motor(1)_PAD );
        Properties:
        {
        }

    Pin : Name = Motor(2)
        Attributes:
            In Group/Port: True
            In Sync Option: AUTO
            Out Sync Option: NOSYNC
            Interrupt generated: False
            Interrupt mode: NONE
            Drive mode: CMOS_OUT
            VTrip: EITHER
            Slew: FAST
            Input Sync needed: False
            Output Sync needed: False
            SC shield enabled: False
            POR State: ANY
            LCD Mode: COMMON
            Register Mode: RegComb
            CaSense Mode: NEITHER
            Treat as pin: False
            Is OE Registered: False
            Uses Analog: False
            Can contain Digital: True
            Is SIO: False
            SIO Output Buf: NONREGULATED
            SIO Input Buf: SINGLE_ENDED
            SIO HiFreq: LOW
            SIO Hyst: DISABLED
            SIO Vtrip: MULTIPLIER_0_5
            SIO Multiplier Index: 0
            SIO RefSel: VCC_IO
            Required Capabilities: DIGITAL, ROUTABLE
            Initial Value: 0
            IO Voltage: 0
        PORT MAP (
            pa_out => Motor(2)__PA ,
            pin_input => Net_20 ,
            pad => Motor(2)_PAD );
        Properties:
        {
        }

    Pin : Name = Motor(3)
        Attributes:
            In Group/Port: True
            In Sync Option: AUTO
            Out Sync Option: NOSYNC
            Interrupt generated: False
            Interrupt mode: NONE
            Drive mode: CMOS_OUT
            VTrip: EITHER
            Slew: FAST
            Input Sync needed: False
            Output Sync needed: False
            SC shield enabled: False
            POR State: ANY
            LCD Mode: COMMON
            Register Mode: RegComb
            CaSense Mode: NEITHER
            Treat as pin: False
            Is OE Registered: False
            Uses Analog: False
            Can contain Digital: True
            Is SIO: False
            SIO Output Buf: NONREGULATED
            SIO Input Buf: SINGLE_ENDED
            SIO HiFreq: LOW
            SIO Hyst: DISABLED
            SIO Vtrip: MULTIPLIER_0_5
            SIO Multiplier Index: 0
            SIO RefSel: VCC_IO
            Required Capabilities: DIGITAL, ROUTABLE
            Initial Value: 0
            IO Voltage: 0
        PORT MAP (
            pa_out => Motor(3)__PA ,
            pin_input => Net_21 ,
            pad => Motor(3)_PAD );
        Properties:
        {
        }

    Pin : Name = LED(0)
        Attributes:
            In Group/Port: True
            In Sync Option: AUTO
            Out Sync Option: NOSYNC
            Interrupt generated: False
            Interrupt mode: NONE
            Drive mode: CMOS_OUT
            VTrip: EITHER
            Slew: FAST
            Input Sync needed: False
            Output Sync needed: False
            SC shield enabled: False
            POR State: ANY
            LCD Mode: COMMON
            Register Mode: RegComb
            CaSense Mode: NEITHER
            Treat as pin: True
            Is OE Registered: False
            Uses Analog: False
            Can contain Digital: True
            Is SIO: False
            SIO Output Buf: NONREGULATED
            SIO Input Buf: SINGLE_ENDED
            SIO HiFreq: LOW
            SIO Hyst: DISABLED
            SIO Vtrip: MULTIPLIER_0_5
            SIO Multiplier Index: 0
            SIO RefSel: VCC_IO
            Required Capabilities: DIGITAL
            Initial Value: 0
            IO Voltage: 0
        PORT MAP (
            pa_out => LED(0)__PA ,
            pad => LED(0)_PAD );
        Properties:
        {
        }
    </CYPRESSTAG>
    <CYPRESSTAG name="Macrocell listing" icon="FILE_RPT_EQUATION">

    ------------------------------------------------------------
    Macrocell listing
    ------------------------------------------------------------

    MacroCell: Name=\Stepper_Controller_1:count_3\\D\, Mode=(Combinatorial)
        Total # of inputs        : 6
        Total # of product terms : 5
            Clock Enable: True
        Main Equation            : 5 pterms
        !(
              !Net_41 * Net_18 * !Net_20 * Net_21 * !Net_2
            + !Net_41 * Net_18 * Net_20 * !Net_21 * !Net_2
            + Net_41 * !Net_18 * !Net_20 * Net_21 * Net_2
            + Net_41 * !Net_18 * Net_20 * !Net_21 * Net_2
            + !Net_1
        );
        Output = \Stepper_Controller_1:count_3\\D\ (fanout=1)

    MacroCell: Name=\Stepper_Controller_1:count_2\\D\, Mode=(Combinatorial)
        Total # of inputs        : 6
        Total # of product terms : 4
            Clock Enable: True
        Main Equation            : 4 pterms
        (
              !Net_41 * Net_18 * !Net_20 * Net_21 * Net_1 * !Net_2
            + !Net_41 * Net_18 * Net_20 * !Net_21 * Net_1 * !Net_2
            + Net_41 * !Net_18 * !Net_20 * Net_21 * Net_1 * Net_2
            + Net_41 * !Net_18 * Net_20 * !Net_21 * Net_1 * Net_2
        );
        Output = \Stepper_Controller_1:count_2\\D\ (fanout=1)

    MacroCell: Name=\Stepper_Controller_1:count_1\\D\, Mode=(Combinatorial)
        Total # of inputs        : 6
        Total # of product terms : 5
            Clock Enable: True
        Main Equation            : 5 pterms
        !(
              !Net_41 * Net_18 * !Net_20 * Net_21 * Net_2
            + !Net_41 * Net_18 * Net_20 * !Net_21 * !Net_2
            + Net_41 * !Net_18 * !Net_20 * Net_21 * Net_2
            + Net_41 * !Net_18 * Net_20 * !Net_21 * !Net_2
            + !Net_1
        );
        Output = \Stepper_Controller_1:count_1\\D\ (fanout=1)

    MacroCell: Name=\Stepper_Controller_1:count_0\\D\, Mode=(Combinatorial)
        Total # of inputs        : 6
        Total # of product terms : 4
            Clock Enable: True
        Main Equation            : 4 pterms
        (
              !Net_41 * Net_18 * !Net_20 * Net_21 * Net_1 * Net_2
            + !Net_41 * Net_18 * Net_20 * !Net_21 * Net_1 * !Net_2
            + Net_41 * !Net_18 * !Net_20 * Net_21 * Net_1 * Net_2
            + Net_41 * !Net_18 * Net_20 * !Net_21 * Net_1 * !Net_2
        );
        Output = \Stepper_Controller_1:count_0\\D\ (fanout=1)

    MacroCell: Name=__ZERO__, Mode=(Combinatorial)
        Total # of inputs        : 0
        Total # of product terms : 0
            Clock Enable: True
        Main Equation            : 0 pterms
        (
            0
        );
        Output = __ZERO__ (fanout=4)

    MacroCell: Name=Net_41, Mode=(D-Register)
        Total # of inputs        : 1
        Total # of product terms : 1
        List of special equations: 
            Clock  = (Net_3) => Global
            Clock Enable: True
        Main Equation            : 1 pterm
        (
              \Stepper_Controller_1:count_0\\D\
        );
        Output = Net_41 (fanout=6)

    MacroCell: Name=Net_18, Mode=(D-Register)
        Total # of inputs        : 1
        Total # of product terms : 1
        List of special equations: 
            Clock  = (Net_3) => Global
            Clock Enable: True
        Main Equation            : 1 pterm
        (
              \Stepper_Controller_1:count_1\\D\
        );
        Output = Net_18 (fanout=6)

    MacroCell: Name=Net_20, Mode=(D-Register)
        Total # of inputs        : 1
        Total # of product terms : 1
        List of special equations: 
            Clock  = (Net_3) => Global
            Clock Enable: True
        Main Equation            : 1 pterm
        (
              \Stepper_Controller_1:count_2\\D\
        );
        Output = Net_20 (fanout=6)

    MacroCell: Name=Net_21, Mode=(D-Register)
        Total # of inputs        : 1
        Total # of product terms : 1
        List of special equations: 
            Clock  = (Net_3) => Global
            Clock Enable: True
        Main Equation            : 1 pterm
        (
              \Stepper_Controller_1:count_3\\D\
        );
        Output = Net_21 (fanout=6)
    </CYPRESSTAG>
    <CYPRESSTAG name="Datapath listing">
    </CYPRESSTAG>
    <CYPRESSTAG name="Status register listing">

    ------------------------------------------------------------
    Status register listing
    ------------------------------------------------------------

    statuscell: Name =\Motor_State:sts:sts_reg\
        PORT MAP (
            status_7 => __ZERO__ ,
            status_6 => __ZERO__ ,
            status_5 => __ZERO__ ,
            status_4 => __ZERO__ ,
            status_3 => Net_21 ,
            status_2 => Net_20 ,
            status_1 => Net_18 ,
            status_0 => Net_41 );
        Properties:
        {
            cy_force_order = 1
            cy_md_select = "00000000"
        }
        Clock Enable: True
    </CYPRESSTAG>
    <CYPRESSTAG name="StatusI register listing">
    </CYPRESSTAG>
    <CYPRESSTAG name="Sync listing">
    </CYPRESSTAG>
    <CYPRESSTAG name="Control register listing">

    ------------------------------------------------------------
    Control register listing
    ------------------------------------------------------------

    controlcell: Name =\Motor_CTL:Sync:ctrl_reg\
        PORT MAP (
            control_7 => \Motor_CTL:control_7\ ,
            control_6 => \Motor_CTL:control_6\ ,
            control_5 => \Motor_CTL:control_5\ ,
            control_4 => \Motor_CTL:control_4\ ,
            control_3 => \Motor_CTL:control_3\ ,
            control_2 => \Motor_CTL:control_2\ ,
            control_1 => Net_2 ,
            control_0 => Net_1 );
        Properties:
        {
            cy_ctrl_mode_0 = "00000000"
            cy_ctrl_mode_1 = "00000000"
            cy_ext_reset = 0
            cy_force_order = 1
            cy_init_value = "00000000"
        }
        Clock Enable: True
    </CYPRESSTAG>
    <CYPRESSTAG name="Count7 listing">
    </CYPRESSTAG>
    <CYPRESSTAG name="DRQ listing">
    </CYPRESSTAG>
    <CYPRESSTAG name="Interrupt listing">
    </CYPRESSTAG>
</CYPRESSTAG>
<CYPRESSTAG name="Technology mapping summary" expanded>

------------------------------------------------------------
Technology mapping summary
------------------------------------------------------------

Resource Type                 : Used : Free :  Max :  % Used
============================================================
Digital Clocks                :    1 :    7 :    8 : 12.50 %
Analog Clocks                 :    0 :    4 :    4 :  0.00 %
CapSense Buffers              :    0 :    2 :    2 :  0.00 %
Digital Filter Block          :    0 :    1 :    1 :  0.00 %
Interrupts                    :    0 :   32 :   32 :  0.00 %
IO                            :    8 :   40 :   48 : 16.67 %
Segment LCD                   :    0 :    1 :    1 :  0.00 %
CAN 2.0b                      :    0 :    1 :    1 :  0.00 %
I2C                           :    0 :    1 :    1 :  0.00 %
USB                           :    0 :    1 :    1 :  0.00 %
DMA Channels                  :    0 :   24 :   24 :  0.00 %
Timer                         :    0 :    4 :    4 :  0.00 %
UDB                           :      :      :      :        
  Macrocells                  :    9 :  183 :  192 :  4.69 %
  Unique P-terms              :   17 :  367 :  384 :  4.43 %
  Total P-terms               :   22 :      :      :        
  Datapath Cells              :    0 :   24 :   24 :  0.00 %
  Status Cells                :    1 :   23 :   24 :  4.17 %
    Status Registers          :    1 :      :      :        
  Control Cells               :    1 :   23 :   24 :  4.17 %
    Control Registers         :    1 :      :      :        
Opamp                         :    0 :    4 :    4 :  0.00 %
Comparator                    :    0 :    4 :    4 :  0.00 %
Delta-Sigma ADC               :    0 :    1 :    1 :  0.00 %
LPF                           :    0 :    2 :    2 :  0.00 %
SAR ADC                       :    0 :    2 :    2 :  0.00 %
Analog (SC/CT) Blocks         :    0 :    4 :    4 :  0.00 %
DAC                           :      :      :      :        
  VIDAC                       :    0 :    4 :    4 :  0.00 %
</CYPRESSTAG>
Technology Mapping: Elapsed time ==> 0s.133ms
Tech Mapping phase: Elapsed time ==> 0s.214ms
</CYPRESSTAG>
<CYPRESSTAG name="Analog Placement">
Initial Analog Placement Results:
IO_6@[IOP=(1)][IoId=(6)] : LED(0) (fixed)
IO_0@[IOP=(3)][IoId=(0)] : Motor(0) (fixed)
IO_1@[IOP=(3)][IoId=(1)] : Motor(1) (fixed)
IO_2@[IOP=(3)][IoId=(2)] : Motor(2) (fixed)
IO_3@[IOP=(3)][IoId=(3)] : Motor(3) (fixed)
Analog Placement phase: Elapsed time ==> 0s.014ms
</CYPRESSTAG>
<CYPRESSTAG name="Analog Routing">
Analog Routing phase: Elapsed time ==> 0s.001ms
</CYPRESSTAG>
<CYPRESSTAG name="Analog Code Generation">
============ Analog Final Answer Routes ============
Dump of CyAnalogRoutingResultsDB
Map of net to items {
}
Map of item to net {
}
Mux Info {
}
Dump of CyP35AnalogRoutingResultsDB
IsVddaHalfUsedForComp = False
IsVddaHalfUsedForSar0 = False
IsVddaHalfUsedForSar1 = False
Analog Code Generation phase: Elapsed time ==> 0s.277ms
</CYPRESSTAG>
<CYPRESSTAG name="Digital Placement">
<CYPRESSTAG name="Detailed placement messages">
I2076: Total run-time: 0.6 sec.

</CYPRESSTAG>
<CYPRESSTAG name="PLD Packing">
<CYPRESSTAG name="PLD Packing Summary" expanded>

------------------------------------------------------------
PLD Packing Summary
------------------------------------------------------------
            Resource Type : Used : Free :  Max :  % Used
    ====================================================
                     PLDs :    3 :   45 :   48 :   6.25%

<CYPRESSTAG name="PLD Statistics">

        PLD Resource Type :     Average/LAB
    =======================================
                   Inputs :            5.33
                   Pterms :            5.67
               Macrocells :            3.00
</CYPRESSTAG>
<CYPRESSTAG name="Packed PLD Contents">
Packed PLD Contents not displayed at this verbose level.</CYPRESSTAG>
</CYPRESSTAG>
PLD Packing: Elapsed time ==> 0s.001ms
</CYPRESSTAG>
<CYPRESSTAG name="Partitioning">
<CYPRESSTAG name="Initial Partitioning Summary">
Initial Partitioning Summary not displayed at this verbose level.</CYPRESSTAG>
<CYPRESSTAG name="Final Partitioning Summary">
Final Partitioning Summary not displayed at this verbose level.</CYPRESSTAG>
Partitioning: Elapsed time ==> 0s.010ms
</CYPRESSTAG>
<CYPRESSTAG name="Final Placement Summary">

------------------------------------------------------------
Final Placement Summary
------------------------------------------------------------

       Resource Type :      Count : Avg Inputs : Avg Outputs
    ========================================================
                 UDB :          2 :       5.00 :       4.50
<CYPRESSTAG name="Final Placement Details">
<CYPRESSTAG name="Component Details">

------------------------------------------------------------
Component Placement Details
------------------------------------------------------------
UDB [UDB=(0,0)] is empty.
UDB [UDB=(0,1)] is empty.
UDB [UDB=(0,2)] is empty.
UDB [UDB=(0,3)] is empty.
UDB [UDB=(0,4)] is empty.
UDB [UDB=(0,5)] is empty.
UDB [UDB=(1,0)] is empty.
UDB [UDB=(1,1)] is empty.
UDB [UDB=(1,2)] is empty.
UDB [UDB=(1,3)] is empty.
UDB [UDB=(1,4)] is empty.
UDB [UDB=(1,5)] is empty.
UDB [UDB=(2,0)] contents:
LAB@[UDB=(2,0)][LB=0] #macrocells=1, #inputs=1, #pterms=1
{
    [McSlotId=0]:     MacroCell: Name=Net_41, Mode=(D-Register) @ [UDB=(2,0)][LB=0][MC=0]
        Total # of inputs        : 1
        Total # of product terms : 1
        List of special equations: 
            Clock  = (Net_3) => Global
            Clock Enable: True
        Main Equation            : 1 pterm
        (
              \Stepper_Controller_1:count_0\\D\
        );
        Output = Net_41 (fanout=6)
        Properties               : 
        {
        }

    [McSlotId=1]: (empty)
    [McSlotId=2]: (empty)
    [McSlotId=3]: (empty)
}

UDB [UDB=(2,1)] is empty.
UDB [UDB=(2,2)] is empty.
UDB [UDB=(2,3)] is empty.
UDB [UDB=(2,4)] is empty.
UDB [UDB=(2,5)] is empty.
UDB [UDB=(3,0)] contents:
LAB@[UDB=(3,0)][LB=0] #macrocells=4, #inputs=7, #pterms=8
{
    [McSlotId=0]:     MacroCell: Name=\Stepper_Controller_1:count_3\\D\, Mode=(Combinatorial) @ [UDB=(3,0)][LB=0][MC=0]
        Total # of inputs        : 6
        Total # of product terms : 5
            Clock Enable: True
        Main Equation            : 5 pterms
        !(
              !Net_41 * Net_18 * !Net_20 * Net_21 * !Net_2
            + !Net_41 * Net_18 * Net_20 * !Net_21 * !Net_2
            + Net_41 * !Net_18 * !Net_20 * Net_21 * Net_2
            + Net_41 * !Net_18 * Net_20 * !Net_21 * Net_2
            + !Net_1
        );
        Output = \Stepper_Controller_1:count_3\\D\ (fanout=1)
        Properties               : 
        {
        }

    [McSlotId=1]:     MacroCell: Name=Net_21, Mode=(D-Register) @ [UDB=(3,0)][LB=0][MC=1]
        Total # of inputs        : 1
        Total # of product terms : 1
        List of special equations: 
            Clock  = (Net_3) => Global
            Clock Enable: True
        Main Equation            : 1 pterm
        (
              \Stepper_Controller_1:count_3\\D\
        );
        Output = Net_21 (fanout=6)
        Properties               : 
        {
        }

    [McSlotId=2]:     MacroCell: Name=\Stepper_Controller_1:count_1\\D\, Mode=(Combinatorial) @ [UDB=(3,0)][LB=0][MC=2]
        Total # of inputs        : 6
        Total # of product terms : 5
            Clock Enable: True
        Main Equation            : 5 pterms
        !(
              !Net_41 * Net_18 * !Net_20 * Net_21 * Net_2
            + !Net_41 * Net_18 * Net_20 * !Net_21 * !Net_2
            + Net_41 * !Net_18 * !Net_20 * Net_21 * Net_2
            + Net_41 * !Net_18 * Net_20 * !Net_21 * !Net_2
            + !Net_1
        );
        Output = \Stepper_Controller_1:count_1\\D\ (fanout=1)
        Properties               : 
        {
        }

    [McSlotId=3]:     MacroCell: Name=__ZERO__, Mode=(Combinatorial) @ [UDB=(3,0)][LB=0][MC=3]
        Total # of inputs        : 0
        Total # of product terms : 0
            Clock Enable: True
        Main Equation            : 0 pterms
        (
            0
        );
        Output = __ZERO__ (fanout=4)
        Properties               : 
        {
        }
}

LAB@[UDB=(3,0)][LB=1] #macrocells=4, #inputs=8, #pterms=8
{
    [McSlotId=0]:     MacroCell: Name=Net_18, Mode=(D-Register) @ [UDB=(3,0)][LB=1][MC=0]
        Total # of inputs        : 1
        Total # of product terms : 1
        List of special equations: 
            Clock  = (Net_3) => Global
            Clock Enable: True
        Main Equation            : 1 pterm
        (
              \Stepper_Controller_1:count_1\\D\
        );
        Output = Net_18 (fanout=6)
        Properties               : 
        {
        }

    [McSlotId=1]:     MacroCell: Name=Net_20, Mode=(D-Register) @ [UDB=(3,0)][LB=1][MC=1]
        Total # of inputs        : 1
        Total # of product terms : 1
        List of special equations: 
            Clock  = (Net_3) => Global
            Clock Enable: True
        Main Equation            : 1 pterm
        (
              \Stepper_Controller_1:count_2\\D\
        );
        Output = Net_20 (fanout=6)
        Properties               : 
        {
        }

    [McSlotId=2]:     MacroCell: Name=\Stepper_Controller_1:count_2\\D\, Mode=(Combinatorial) @ [UDB=(3,0)][LB=1][MC=2]
        Total # of inputs        : 6
        Total # of product terms : 4
            Clock Enable: True
        Main Equation            : 4 pterms
        (
              !Net_41 * Net_18 * !Net_20 * Net_21 * Net_1 * !Net_2
            + !Net_41 * Net_18 * Net_20 * !Net_21 * Net_1 * !Net_2
            + Net_41 * !Net_18 * !Net_20 * Net_21 * Net_1 * Net_2
            + Net_41 * !Net_18 * Net_20 * !Net_21 * Net_1 * Net_2
        );
        Output = \Stepper_Controller_1:count_2\\D\ (fanout=1)
        Properties               : 
        {
        }

    [McSlotId=3]:     MacroCell: Name=\Stepper_Controller_1:count_0\\D\, Mode=(Combinatorial) @ [UDB=(3,0)][LB=1][MC=3]
        Total # of inputs        : 6
        Total # of product terms : 4
            Clock Enable: True
        Main Equation            : 4 pterms
        (
              !Net_41 * Net_18 * !Net_20 * Net_21 * Net_1 * Net_2
            + !Net_41 * Net_18 * Net_20 * !Net_21 * Net_1 * !Net_2
            + Net_41 * !Net_18 * !Net_20 * Net_21 * Net_1 * Net_2
            + Net_41 * !Net_18 * Net_20 * !Net_21 * Net_1 * !Net_2
        );
        Output = \Stepper_Controller_1:count_0\\D\ (fanout=1)
        Properties               : 
        {
        }
}

statuscell: Name =\Motor_State:sts:sts_reg\
    PORT MAP (
        status_7 => __ZERO__ ,
        status_6 => __ZERO__ ,
        status_5 => __ZERO__ ,
        status_4 => __ZERO__ ,
        status_3 => Net_21 ,
        status_2 => Net_20 ,
        status_1 => Net_18 ,
        status_0 => Net_41 );
    Properties:
    {
        cy_force_order = 1
        cy_md_select = "00000000"
    }
    Clock Enable: True

controlcell: Name =\Motor_CTL:Sync:ctrl_reg\
    PORT MAP (
        control_7 => \Motor_CTL:control_7\ ,
        control_6 => \Motor_CTL:control_6\ ,
        control_5 => \Motor_CTL:control_5\ ,
        control_4 => \Motor_CTL:control_4\ ,
        control_3 => \Motor_CTL:control_3\ ,
        control_2 => \Motor_CTL:control_2\ ,
        control_1 => Net_2 ,
        control_0 => Net_1 );
    Properties:
    {
        cy_ctrl_mode_0 = "00000000"
        cy_ctrl_mode_1 = "00000000"
        cy_ext_reset = 0
        cy_force_order = 1
        cy_init_value = "00000000"
    }
    Clock Enable: True

UDB [UDB=(3,1)] is empty.
UDB [UDB=(3,2)] is empty.
UDB [UDB=(3,3)] is empty.
UDB [UDB=(3,4)] is empty.
UDB [UDB=(3,5)] is empty.
Intr container @ [IntrContainer=(0)]: empty
Drq container @ [DrqContainer=(0)]: empty
Port 0 contains the following IO cells:
Port 1 contains the following IO cells:
[IoId=6]: 
Pin : Name = LED(0)
    Attributes:
        In Group/Port: True
        In Sync Option: AUTO
        Out Sync Option: NOSYNC
        Interrupt generated: False
        Interrupt mode: NONE
        Drive mode: CMOS_OUT
        VTrip: EITHER
        Slew: FAST
        Input Sync needed: False
        Output Sync needed: False
        SC shield enabled: False
        POR State: ANY
        LCD Mode: COMMON
        Register Mode: RegComb
        CaSense Mode: NEITHER
        Treat as pin: True
        Is OE Registered: False
        Uses Analog: False
        Can contain Digital: True
        Is SIO: False
        SIO Output Buf: NONREGULATED
        SIO Input Buf: SINGLE_ENDED
        SIO HiFreq: LOW
        SIO Hyst: DISABLED
        SIO Vtrip: MULTIPLIER_0_5
        SIO Multiplier Index: 0
        SIO RefSel: VCC_IO
        Required Capabilities: DIGITAL
        Initial Value: 0
        IO Voltage: 0
    PORT MAP (
        pa_out => LED(0)__PA ,
        pad => LED(0)_PAD );
    Properties:
    {
    }

Port 2 contains the following IO cells:
Port 3 contains the following IO cells:
[IoId=0]: 
Pin : Name = Motor(0)
    Attributes:
        In Group/Port: True
        In Sync Option: AUTO
        Out Sync Option: NOSYNC
        Interrupt generated: False
        Interrupt mode: NONE
        Drive mode: CMOS_OUT
        VTrip: EITHER
        Slew: FAST
        Input Sync needed: False
        Output Sync needed: False
        SC shield enabled: False
        POR State: ANY
        LCD Mode: COMMON
        Register Mode: RegComb
        CaSense Mode: NEITHER
        Treat as pin: False
        Is OE Registered: False
        Uses Analog: False
        Can contain Digital: True
        Is SIO: False
        SIO Output Buf: NONREGULATED
        SIO Input Buf: SINGLE_ENDED
        SIO HiFreq: LOW
        SIO Hyst: DISABLED
        SIO Vtrip: MULTIPLIER_0_5
        SIO Multiplier Index: 0
        SIO RefSel: VCC_IO
        Required Capabilities: DIGITAL, ROUTABLE
        Initial Value: 0
        IO Voltage: 0
    PORT MAP (
        pa_out => Motor(0)__PA ,
        pin_input => Net_41 ,
        pad => Motor(0)_PAD );
    Properties:
    {
    }

[IoId=1]: 
Pin : Name = Motor(1)
    Attributes:
        In Group/Port: True
        In Sync Option: AUTO
        Out Sync Option: NOSYNC
        Interrupt generated: False
        Interrupt mode: NONE
        Drive mode: CMOS_OUT
        VTrip: EITHER
        Slew: FAST
        Input Sync needed: False
        Output Sync needed: False
        SC shield enabled: False
        POR State: ANY
        LCD Mode: COMMON
        Register Mode: RegComb
        CaSense Mode: NEITHER
        Treat as pin: False
        Is OE Registered: False
        Uses Analog: False
        Can contain Digital: True
        Is SIO: False
        SIO Output Buf: NONREGULATED
        SIO Input Buf: SINGLE_ENDED
        SIO HiFreq: LOW
        SIO Hyst: DISABLED
        SIO Vtrip: MULTIPLIER_0_5
        SIO Multiplier Index: 0
        SIO RefSel: VCC_IO
        Required Capabilities: DIGITAL, ROUTABLE
        Initial Value: 0
        IO Voltage: 0
    PORT MAP (
        pa_out => Motor(1)__PA ,
        pin_input => Net_18 ,
        pad => Motor(1)_PAD );
    Properties:
    {
    }

[IoId=2]: 
Pin : Name = Motor(2)
    Attributes:
        In Group/Port: True
        In Sync Option: AUTO
        Out Sync Option: NOSYNC
        Interrupt generated: False
        Interrupt mode: NONE
        Drive mode: CMOS_OUT
        VTrip: EITHER
        Slew: FAST
        Input Sync needed: False
        Output Sync needed: False
        SC shield enabled: False
        POR State: ANY
        LCD Mode: COMMON
        Register Mode: RegComb
        CaSense Mode: NEITHER
        Treat as pin: False
        Is OE Registered: False
        Uses Analog: False
        Can contain Digital: True
        Is SIO: False
        SIO Output Buf: NONREGULATED
        SIO Input Buf: SINGLE_ENDED
        SIO HiFreq: LOW
        SIO Hyst: DISABLED
        SIO Vtrip: MULTIPLIER_0_5
        SIO Multiplier Index: 0
        SIO RefSel: VCC_IO
        Required Capabilities: DIGITAL, ROUTABLE
        Initial Value: 0
        IO Voltage: 0
    PORT MAP (
        pa_out => Motor(2)__PA ,
        pin_input => Net_20 ,
        pad => Motor(2)_PAD );
    Properties:
    {
    }

[IoId=3]: 
Pin : Name = Motor(3)
    Attributes:
        In Group/Port: True
        In Sync Option: AUTO
        Out Sync Option: NOSYNC
        Interrupt generated: False
        Interrupt mode: NONE
        Drive mode: CMOS_OUT
        VTrip: EITHER
        Slew: FAST
        Input Sync needed: False
        Output Sync needed: False
        SC shield enabled: False
        POR State: ANY
        LCD Mode: COMMON
        Register Mode: RegComb
        CaSense Mode: NEITHER
        Treat as pin: False
        Is OE Registered: False
        Uses Analog: False
        Can contain Digital: True
        Is SIO: False
        SIO Output Buf: NONREGULATED
        SIO Input Buf: SINGLE_ENDED
        SIO HiFreq: LOW
        SIO Hyst: DISABLED
        SIO Vtrip: MULTIPLIER_0_5
        SIO Multiplier Index: 0
        SIO RefSel: VCC_IO
        Required Capabilities: DIGITAL, ROUTABLE
        Initial Value: 0
        IO Voltage: 0
    PORT MAP (
        pa_out => Motor(3)__PA ,
        pin_input => Net_21 ,
        pad => Motor(3)_PAD );
    Properties:
    {
    }

Port 12 contains the following IO cells:
Port 15 contains the following IO cells:
ARM group 0: empty
CAN group 0: empty
Cache group 0: empty
CapSense group 0: empty
Clock group 0: 
    Clock Block @ F(Clock,0): 
    clockblockcell: Name =ClockBlock
        PORT MAP (
            imo => ClockBlock_IMO ,
            pllout => ClockBlock_PLL_OUT ,
            ilo => ClockBlock_ILO ,
            clk_100k => ClockBlock_100k ,
            clk_1k => ClockBlock_1k ,
            clk_32k => ClockBlock_32k ,
            xtal => ClockBlock_XTAL ,
            clk_32k_xtal => ClockBlock_XTAL_32KHZ ,
            clk_sync => ClockBlock_MASTER_CLK ,
            clk_bus_glb => ClockBlock_BUS_CLK ,
            clk_bus => ClockBlock_BUS_CLK_local ,
            dclk_glb_0 => Net_3 ,
            dclk_0 => Net_3_local );
        Properties:
        {
        }
Comparator group 0: empty
DFB group 0: empty
DSM group 0: empty
Decimator group 0: empty
EMIF group 0: empty
I2C group 0: empty
LCD group 0: empty
LVD group 0: empty
PICU group 0: empty
PM group 0: empty
SC group 0: empty
SPC group 0: empty
Timer group 0: empty
USB group 0: empty
VIDAC group 0: empty
OpAmp group 0: empty
CsAbuf group 0: empty
Vref group 0: empty
LPF group 0: empty
SAR group 0: empty
ANAIF group 0: empty
PHUB group 0: empty
</CYPRESSTAG>
<CYPRESSTAG name="Port Configuration Details">

------------------------------------------------------------
Port Configuration report
------------------------------------------------------------
     |     |       | Interrupt |                  |          | 
Port | Pin | Fixed |      Type |       Drive Mode |     Name | Connections
-----+-----+-------+-----------+------------------+----------+------------
   1 |   6 |     * |      NONE |         CMOS_OUT |   LED(0) | 
-----+-----+-------+-----------+------------------+----------+------------
   3 |   0 |     * |      NONE |         CMOS_OUT | Motor(0) | In(Net_41)
     |   1 |     * |      NONE |         CMOS_OUT | Motor(1) | In(Net_18)
     |   2 |     * |      NONE |         CMOS_OUT | Motor(2) | In(Net_20)
     |   3 |     * |      NONE |         CMOS_OUT | Motor(3) | In(Net_21)
--------------------------------------------------------------------------
</CYPRESSTAG>
</CYPRESSTAG>
</CYPRESSTAG>
Digital component placer commit/Report: Elapsed time ==> 0s.011ms
Digital Placement phase: Elapsed time ==> 1s.219ms
</CYPRESSTAG>
<CYPRESSTAG name="Digital Routing">
"C:\Program Files (x86)\Cypress\PSoC Creator\4.2\PSoC Creator\bin/sjrouter.exe" --xml-path "C:\Program Files (x86)\Cypress\PSoC Creator\4.2\PSoC Creator\dev\psoc5/psoc5lp/route_arch-rrg.cydata" --vh2-path "lab8_r.vh2" --pcf-path "lab8.pco" --des-name "lab8" --dsf-path "lab8.dsf" --sdc-path "lab8.sdc" --lib-path "lab8_r.lib"
Routing successful.
Digital Routing phase: Elapsed time ==> 1s.452ms
</CYPRESSTAG>
<CYPRESSTAG name="Bitstream Generation">
Bitstream Generation phase: Elapsed time ==> 0s.286ms
</CYPRESSTAG>
<CYPRESSTAG name="Bitstream Verification">
Bitstream Verification phase: Elapsed time ==> 0s.048ms
</CYPRESSTAG>
<CYPRESSTAG name="Static timing analysis">
Timing report is in lab8_timing.html.
Static timing analysis phase: Elapsed time ==> 0s.465ms
</CYPRESSTAG>
<CYPRESSTAG name="Data reporting">
Data reporting phase: Elapsed time ==> 0s.001ms
</CYPRESSTAG>
<CYPRESSTAG name="Database update...">
Design database save phase: Elapsed time ==> 0s.166ms
</CYPRESSTAG>
cydsfit: Elapsed time ==> 4s.195ms
</CYPRESSTAG>
Fitter phase: Elapsed time ==> 4s.196ms
API generation phase: Elapsed time ==> 1s.760ms
Dependency generation phase: Elapsed time ==> 0s.035ms
Cleanup phase: Elapsed time ==> 0s.001ms
