ARM GAS  C:\Users\dmarsch\AppData\Local\Temp\ccrn8BQz.s 			page 1


   1              		.syntax unified
   2              		.cpu cortex-m3
   3              		.fpu softvfp
   4              		.eabi_attribute 20, 1
   5              		.eabi_attribute 21, 1
   6              		.eabi_attribute 23, 3
   7              		.eabi_attribute 24, 1
   8              		.eabi_attribute 25, 1
   9              		.eabi_attribute 26, 1
  10              		.eabi_attribute 30, 1
  11              		.eabi_attribute 34, 1
  12              		.eabi_attribute 18, 4
  13              		.thumb
  14              		.syntax unified
  15              		.file	"cymetadata.c"
  16              		.text
  17              	.Ltext0:
  18              		.cfi_sections	.debug_frame
  19              		.global	cy_metadata
  20              		.global	cy_meta_flashprotect
  21              		.global	cy_meta_wonvl
  22              		.global	cy_meta_custnvl
  23              		.global	cy_meta_configecc
  24              		.section	.cyconfigecc,"a",%progbits
  25              		.align	2
  26              		.type	cy_meta_configecc, %object
  27              		.size	cy_meta_configecc, 256
  28              	cy_meta_configecc:
  29 0000 02       		.byte	2
  30 0001 52       		.byte	82
  31 0002 00       		.byte	0
  32 0003 40       		.byte	64
  33 0004 2C       		.byte	44
  34 0005 14       		.byte	20
  35 0006 01       		.byte	1
  36 0007 40       		.byte	64
  37 0008 2F       		.byte	47
  38 0009 15       		.byte	21
  39 000a 01       		.byte	1
  40 000b 40       		.byte	64
  41 000c 0B       		.byte	11
  42 000d 49       		.byte	73
  43 000e 01       		.byte	1
  44 000f 40       		.byte	64
  45 0010 02       		.byte	2
  46 0011 50       		.byte	80
  47 0012 01       		.byte	1
  48 0013 40       		.byte	64
  49 0014 18       		.byte	24
  50 0015 06       		.byte	6
  51 0016 19       		.byte	25
  52 0017 05       		.byte	5
  53 0018 1E       		.byte	30
  54 0019 01       		.byte	1
  55 001a 30       		.byte	48
  56 001b 01       		.byte	1
  57 001c 36       		.byte	54
ARM GAS  C:\Users\dmarsch\AppData\Local\Temp\ccrn8BQz.s 			page 2


  58 001d 01       		.byte	1
  59 001e 58       		.byte	88
  60 001f 04       		.byte	4
  61 0020 5F       		.byte	95
  62 0021 01       		.byte	1
  63 0022 84       		.byte	-124
  64 0023 8A       		.byte	-118
  65 0024 85       		.byte	-123
  66 0025 B0       		.byte	-80
  67 0026 86       		.byte	-122
  68 0027 45       		.byte	69
  69 0028 87       		.byte	-121
  70 0029 4C       		.byte	76
  71 002a 89       		.byte	-119
  72 002b 8C       		.byte	-116
  73 002c 8B       		.byte	-117
  74 002d 70       		.byte	112
  75 002e 8F       		.byte	-113
  76 002f FC       		.byte	-4
  77 0030 92       		.byte	-110
  78 0031 20       		.byte	32
  79 0032 98       		.byte	-104
  80 0033 8C       		.byte	-116
  81 0034 99       		.byte	-103
  82 0035 54       		.byte	84
  83 0036 9A       		.byte	-102
  84 0037 43       		.byte	67
  85 0038 9B       		.byte	-101
  86 0039 A8       		.byte	-88
  87 003a 9C       		.byte	-100
  88 003b 43       		.byte	67
  89 003c 9E       		.byte	-98
  90 003d 8C       		.byte	-116
  91 003e 9F       		.byte	-97
  92 003f 02       		.byte	2
  93 0040 A4       		.byte	-92
  94 0041 83       		.byte	-125
  95 0042 A6       		.byte	-90
  96 0043 4C       		.byte	76
  97 0044 A7       		.byte	-89
  98 0045 01       		.byte	1
  99 0046 A8       		.byte	-88
 100 0047 45       		.byte	69
 101 0048 A9       		.byte	-87
 102 0049 A8       		.byte	-88
 103 004a AA       		.byte	-86
 104 004b 8A       		.byte	-118
 105 004c AB       		.byte	-85
 106 004d 54       		.byte	84
 107 004e AC       		.byte	-84
 108 004f 10       		.byte	16
 109 0050 AD       		.byte	-83
 110 0051 4C       		.byte	76
 111 0052 AF       		.byte	-81
 112 0053 B0       		.byte	-80
 113 0054 B0       		.byte	-80
 114 0055 1F       		.byte	31
ARM GAS  C:\Users\dmarsch\AppData\Local\Temp\ccrn8BQz.s 			page 3


 115 0056 B1       		.byte	-79
 116 0057 3C       		.byte	60
 117 0058 B2       		.byte	-78
 118 0059 20       		.byte	32
 119 005a B3       		.byte	-77
 120 005b 02       		.byte	2
 121 005c B4       		.byte	-76
 122 005d D6       		.byte	-42
 123 005e B5       		.byte	-75
 124 005f 01       		.byte	1
 125 0060 B7       		.byte	-73
 126 0061 D8       		.byte	-40
 127 0062 B8       		.byte	-72
 128 0063 22       		.byte	34
 129 0064 BE       		.byte	-66
 130 0065 51       		.byte	81
 131 0066 BF       		.byte	-65
 132 0067 41       		.byte	65
 133 0068 D8       		.byte	-40
 134 0069 04       		.byte	4
 135 006a D9       		.byte	-39
 136 006b 04       		.byte	4
 137 006c DB       		.byte	-37
 138 006d 04       		.byte	4
 139 006e DF       		.byte	-33
 140 006f 01       		.byte	1
 141 0070 05       		.byte	5
 142 0071 04       		.byte	4
 143 0072 09       		.byte	9
 144 0073 40       		.byte	64
 145 0074 0D       		.byte	13
 146 0075 20       		.byte	32
 147 0076 0E       		.byte	14
 148 0077 81       		.byte	-127
 149 0078 15       		.byte	21
 150 0079 40       		.byte	64
 151 007a 17       		.byte	23
 152 007b 14       		.byte	20
 153 007c 19       		.byte	25
 154 007d 80       		.byte	-128
 155 007e 1A       		.byte	26
 156 007f 81       		.byte	-127
 157 0080 1D       		.byte	29
 158 0081 C4       		.byte	-60
 159 0082 1E       		.byte	30
 160 0083 80       		.byte	-128
 161 0084 1F       		.byte	31
 162 0085 68       		.byte	104
 163 0086 24       		.byte	36
 164 0087 04       		.byte	4
 165 0088 25       		.byte	37
 166 0089 68       		.byte	104
 167 008a 26       		.byte	38
 168 008b 14       		.byte	20
 169 008c 27       		.byte	39
 170 008d 50       		.byte	80
 171 008e 2D       		.byte	45
ARM GAS  C:\Users\dmarsch\AppData\Local\Temp\ccrn8BQz.s 			page 4


 172 008f 80       		.byte	-128
 173 0090 2F       		.byte	47
 174 0091 28       		.byte	40
 175 0092 37       		.byte	55
 176 0093 50       		.byte	80
 177 0094 3C       		.byte	60
 178 0095 04       		.byte	4
 179 0096 3E       		.byte	62
 180 0097 50       		.byte	80
 181 0098 5C       		.byte	92
 182 0099 02       		.byte	2
 183 009a 5D       		.byte	93
 184 009b 80       		.byte	-128
 185 009c 5E       		.byte	94
 186 009d 28       		.byte	40
 187 009e 64       		.byte	100
 188 009f 10       		.byte	16
 189 00a0 65       		.byte	101
 190 00a1 40       		.byte	64
 191 00a2 66       		.byte	102
 192 00a3 20       		.byte	32
 193 00a4 67       		.byte	103
 194 00a5 80       		.byte	-128
 195 00a6 6D       		.byte	109
 196 00a7 40       		.byte	64
 197 00a8 6E       		.byte	110
 198 00a9 50       		.byte	80
 199 00aa 6F       		.byte	111
 200 00ab 04       		.byte	4
 201 00ac 82       		.byte	-126
 202 00ad 40       		.byte	64
 203 00ae 86       		.byte	-122
 204 00af 20       		.byte	32
 205 00b0 87       		.byte	-121
 206 00b1 40       		.byte	64
 207 00b2 88       		.byte	-120
 208 00b3 10       		.byte	16
 209 00b4 89       		.byte	-119
 210 00b5 80       		.byte	-128
 211 00b6 8C       		.byte	-116
 212 00b7 06       		.byte	6
 213 00b8 8D       		.byte	-115
 214 00b9 0C       		.byte	12
 215 00ba C0       		.byte	-64
 216 00bb 20       		.byte	32
 217 00bc C2       		.byte	-62
 218 00bd D1       		.byte	-47
 219 00be C4       		.byte	-60
 220 00bf E0       		.byte	-32
 221 00c0 CA       		.byte	-54
 222 00c1 70       		.byte	112
 223 00c2 CC       		.byte	-52
 224 00c3 30       		.byte	48
 225 00c4 CE       		.byte	-50
 226 00c5 70       		.byte	112
 227 00c6 D6       		.byte	-42
 228 00c7 F0       		.byte	-16
ARM GAS  C:\Users\dmarsch\AppData\Local\Temp\ccrn8BQz.s 			page 5


 229 00c8 D8       		.byte	-40
 230 00c9 F0       		.byte	-16
 231 00ca E2       		.byte	-30
 232 00cb 10       		.byte	16
 233 00cc E6       		.byte	-26
 234 00cd 50       		.byte	80
 235 00ce 50       		.byte	80
 236 00cf 04       		.byte	4
 237 00d0 56       		.byte	86
 238 00d1 20       		.byte	32
 239 00d2 5B       		.byte	91
 240 00d3 40       		.byte	64
 241 00d4 5F       		.byte	95
 242 00d5 20       		.byte	32
 243 00d6 83       		.byte	-125
 244 00d7 40       		.byte	64
 245 00d8 8C       		.byte	-116
 246 00d9 04       		.byte	4
 247 00da 8E       		.byte	-114
 248 00db 20       		.byte	32
 249 00dc 8F       		.byte	-113
 250 00dd 20       		.byte	32
 251 00de D4       		.byte	-44
 252 00df E0       		.byte	-32
 253 00e0 D6       		.byte	-42
 254 00e1 20       		.byte	32
 255 00e2 E6       		.byte	-26
 256 00e3 80       		.byte	-128
 257 00e4 10       		.byte	16
 258 00e5 01       		.byte	1
 259 00e6 1A       		.byte	26
 260 00e7 01       		.byte	1
 261 00e8 00       		.byte	0
 262 00e9 4B       		.byte	75
 263 00ea 4B       		.byte	75
 264 00eb 00       		.byte	0
 265 00ec 00       		.byte	0
 266 00ed 00       		.byte	0
 267 00ee 00       		.byte	0
 268 00ef 00       		.byte	0
 269 00f0 00       		.byte	0
 270 00f1 7F       		.byte	127
 271 00f2 7F       		.byte	127
 272 00f3 00       		.byte	0
 273 00f4 00       		.byte	0
 274 00f5 00       		.byte	0
 275 00f6 00       		.byte	0
 276 00f7 00       		.byte	0
 277 00f8 00       		.byte	0
 278 00f9 0F       		.byte	15
 279 00fa 0F       		.byte	15
 280 00fb 00       		.byte	0
 281 00fc 0F       		.byte	15
 282 00fd 00       		.byte	0
 283 00fe 00       		.byte	0
 284 00ff 00       		.byte	0
 285              		.section	.cywolatch,"a",%progbits
ARM GAS  C:\Users\dmarsch\AppData\Local\Temp\ccrn8BQz.s 			page 6


 286              		.align	2
 287              		.type	cy_meta_wonvl, %object
 288              		.size	cy_meta_wonvl, 4
 289              	cy_meta_wonvl:
 290 0000 BC       		.byte	-68
 291 0001 90       		.byte	-112
 292 0002 AC       		.byte	-84
 293 0003 AF       		.byte	-81
 294              		.section	.cycustnvl,"a",%progbits
 295              		.align	2
 296              		.type	cy_meta_custnvl, %object
 297              		.size	cy_meta_custnvl, 4
 298              	cy_meta_custnvl:
 299 0000 00       		.byte	0
 300 0001 00       		.byte	0
 301 0002 40       		.byte	64
 302 0003 05       		.byte	5
 303              		.section	.cymeta,"a",%progbits
 304              		.align	2
 305              		.type	cy_metadata, %object
 306              		.size	cy_metadata, 12
 307              	cy_metadata:
 308 0000 00       		.byte	0
 309 0001 01       		.byte	1
 310 0002 2E       		.byte	46
 311 0003 16       		.byte	22
 312 0004 10       		.byte	16
 313 0005 69       		.byte	105
 314 0006 00       		.byte	0
 315 0007 01       		.byte	1
 316 0008 00       		.byte	0
 317 0009 00       		.byte	0
 318 000a 00       		.byte	0
 319 000b 00       		.byte	0
 320              		.section	.cyflashprotect,"a",%progbits
 321              		.align	2
 322              		.type	cy_meta_flashprotect, %object
 323              		.size	cy_meta_flashprotect, 256
 324              	cy_meta_flashprotect:
 325 0000 00000000 		.space	256
 325      00000000 
 325      00000000 
 325      00000000 
 325      00000000 
 326              		.text
 327              	.Letext0:
 328              		.file 1 "c:\\program files (x86)\\cypress\\psoc creator\\4.2\\psoc creator\\import\\gnu\\arm\\5.4.
 329              		.file 2 "c:\\program files (x86)\\cypress\\psoc creator\\4.2\\psoc creator\\import\\gnu\\arm\\5.4.
 330              		.file 3 "Generated_Source\\PSoC5\\cymetadata.c"
 331              		.section	.debug_info,"",%progbits
 332              	.Ldebug_info0:
 333 0000 20010000 		.4byte	0x120
 334 0004 0400     		.2byte	0x4
 335 0006 00000000 		.4byte	.Ldebug_abbrev0
 336 000a 04       		.byte	0x4
 337 000b 01       		.uleb128 0x1
 338 000c 54000000 		.4byte	.LASF17
ARM GAS  C:\Users\dmarsch\AppData\Local\Temp\ccrn8BQz.s 			page 7


 339 0010 0C       		.byte	0xc
 340 0011 AE010000 		.4byte	.LASF18
 341 0015 16000000 		.4byte	.LASF19
 342 0019 00000000 		.4byte	.Ldebug_line0
 343 001d 02       		.uleb128 0x2
 344 001e 01       		.byte	0x1
 345 001f 06       		.byte	0x6
 346 0020 A2010000 		.4byte	.LASF0
 347 0024 03       		.uleb128 0x3
 348 0025 00000000 		.4byte	.LASF9
 349 0029 01       		.byte	0x1
 350 002a 1D       		.byte	0x1d
 351 002b 2F000000 		.4byte	0x2f
 352 002f 02       		.uleb128 0x2
 353 0030 01       		.byte	0x1
 354 0031 08       		.byte	0x8
 355 0032 46000000 		.4byte	.LASF1
 356 0036 02       		.uleb128 0x2
 357 0037 02       		.byte	0x2
 358 0038 05       		.byte	0x5
 359 0039 8F010000 		.4byte	.LASF2
 360 003d 02       		.uleb128 0x2
 361 003e 02       		.byte	0x2
 362 003f 07       		.byte	0x7
 363 0040 F4000000 		.4byte	.LASF3
 364 0044 02       		.uleb128 0x2
 365 0045 04       		.byte	0x4
 366 0046 05       		.byte	0x5
 367 0047 99010000 		.4byte	.LASF4
 368 004b 02       		.uleb128 0x2
 369 004c 04       		.byte	0x4
 370 004d 07       		.byte	0x7
 371 004e E2000000 		.4byte	.LASF5
 372 0052 02       		.uleb128 0x2
 373 0053 08       		.byte	0x8
 374 0054 05       		.byte	0x5
 375 0055 81010000 		.4byte	.LASF6
 376 0059 02       		.uleb128 0x2
 377 005a 08       		.byte	0x8
 378 005b 07       		.byte	0x7
 379 005c 36010000 		.4byte	.LASF7
 380 0060 04       		.uleb128 0x4
 381 0061 04       		.byte	0x4
 382 0062 05       		.byte	0x5
 383 0063 696E7400 		.ascii	"int\000"
 384 0067 02       		.uleb128 0x2
 385 0068 04       		.byte	0x4
 386 0069 07       		.byte	0x7
 387 006a 29010000 		.4byte	.LASF8
 388 006e 03       		.uleb128 0x3
 389 006f 4D010000 		.4byte	.LASF10
 390 0073 02       		.byte	0x2
 391 0074 18       		.byte	0x18
 392 0075 24000000 		.4byte	0x24
 393 0079 05       		.uleb128 0x5
 394 007a 90000000 		.4byte	0x90
 395 007e 89000000 		.4byte	0x89
ARM GAS  C:\Users\dmarsch\AppData\Local\Temp\ccrn8BQz.s 			page 8


 396 0082 06       		.uleb128 0x6
 397 0083 89000000 		.4byte	0x89
 398 0087 FF       		.byte	0xff
 399 0088 00       		.byte	0
 400 0089 02       		.uleb128 0x2
 401 008a 04       		.byte	0x4
 402 008b 07       		.byte	0x7
 403 008c 78010000 		.4byte	.LASF11
 404 0090 07       		.uleb128 0x7
 405 0091 6E000000 		.4byte	0x6e
 406 0095 08       		.uleb128 0x8
 407 0096 17010000 		.4byte	.LASF12
 408 009a 03       		.byte	0x3
 409 009b 1F       		.byte	0x1f
 410 009c A6000000 		.4byte	0xa6
 411 00a0 05       		.uleb128 0x5
 412 00a1 03       		.byte	0x3
 413 00a2 00000000 		.4byte	cy_meta_configecc
 414 00a6 07       		.uleb128 0x7
 415 00a7 79000000 		.4byte	0x79
 416 00ab 05       		.uleb128 0x5
 417 00ac 90000000 		.4byte	0x90
 418 00b0 BB000000 		.4byte	0xbb
 419 00b4 06       		.uleb128 0x6
 420 00b5 89000000 		.4byte	0x89
 421 00b9 03       		.byte	0x3
 422 00ba 00       		.byte	0
 423 00bb 08       		.uleb128 0x8
 424 00bc 07010000 		.4byte	.LASF13
 425 00c0 03       		.byte	0x3
 426 00c1 4C       		.byte	0x4c
 427 00c2 CC000000 		.4byte	0xcc
 428 00c6 05       		.uleb128 0x5
 429 00c7 03       		.byte	0x3
 430 00c8 00000000 		.4byte	cy_meta_custnvl
 431 00cc 07       		.uleb128 0x7
 432 00cd AB000000 		.4byte	0xab
 433 00d1 08       		.uleb128 0x8
 434 00d2 6A010000 		.4byte	.LASF14
 435 00d6 03       		.byte	0x3
 436 00d7 5A       		.byte	0x5a
 437 00d8 E2000000 		.4byte	0xe2
 438 00dc 05       		.uleb128 0x5
 439 00dd 03       		.byte	0x3
 440 00de 00000000 		.4byte	cy_meta_wonvl
 441 00e2 07       		.uleb128 0x7
 442 00e3 AB000000 		.4byte	0xab
 443 00e7 08       		.uleb128 0x8
 444 00e8 55010000 		.4byte	.LASF15
 445 00ec 03       		.byte	0x3
 446 00ed 68       		.byte	0x68
 447 00ee F8000000 		.4byte	0xf8
 448 00f2 05       		.uleb128 0x5
 449 00f3 03       		.byte	0x3
 450 00f4 00000000 		.4byte	cy_meta_flashprotect
 451 00f8 07       		.uleb128 0x7
 452 00f9 79000000 		.4byte	0x79
ARM GAS  C:\Users\dmarsch\AppData\Local\Temp\ccrn8BQz.s 			page 9


 453 00fd 05       		.uleb128 0x5
 454 00fe 90000000 		.4byte	0x90
 455 0102 0D010000 		.4byte	0x10d
 456 0106 06       		.uleb128 0x6
 457 0107 89000000 		.4byte	0x89
 458 010b 0B       		.byte	0xb
 459 010c 00       		.byte	0
 460 010d 08       		.uleb128 0x8
 461 010e 0A000000 		.4byte	.LASF16
 462 0112 03       		.byte	0x3
 463 0113 95       		.byte	0x95
 464 0114 1E010000 		.4byte	0x11e
 465 0118 05       		.uleb128 0x5
 466 0119 03       		.byte	0x3
 467 011a 00000000 		.4byte	cy_metadata
 468 011e 07       		.uleb128 0x7
 469 011f FD000000 		.4byte	0xfd
 470 0123 00       		.byte	0
 471              		.section	.debug_abbrev,"",%progbits
 472              	.Ldebug_abbrev0:
 473 0000 01       		.uleb128 0x1
 474 0001 11       		.uleb128 0x11
 475 0002 01       		.byte	0x1
 476 0003 25       		.uleb128 0x25
 477 0004 0E       		.uleb128 0xe
 478 0005 13       		.uleb128 0x13
 479 0006 0B       		.uleb128 0xb
 480 0007 03       		.uleb128 0x3
 481 0008 0E       		.uleb128 0xe
 482 0009 1B       		.uleb128 0x1b
 483 000a 0E       		.uleb128 0xe
 484 000b 10       		.uleb128 0x10
 485 000c 17       		.uleb128 0x17
 486 000d 00       		.byte	0
 487 000e 00       		.byte	0
 488 000f 02       		.uleb128 0x2
 489 0010 24       		.uleb128 0x24
 490 0011 00       		.byte	0
 491 0012 0B       		.uleb128 0xb
 492 0013 0B       		.uleb128 0xb
 493 0014 3E       		.uleb128 0x3e
 494 0015 0B       		.uleb128 0xb
 495 0016 03       		.uleb128 0x3
 496 0017 0E       		.uleb128 0xe
 497 0018 00       		.byte	0
 498 0019 00       		.byte	0
 499 001a 03       		.uleb128 0x3
 500 001b 16       		.uleb128 0x16
 501 001c 00       		.byte	0
 502 001d 03       		.uleb128 0x3
 503 001e 0E       		.uleb128 0xe
 504 001f 3A       		.uleb128 0x3a
 505 0020 0B       		.uleb128 0xb
 506 0021 3B       		.uleb128 0x3b
 507 0022 0B       		.uleb128 0xb
 508 0023 49       		.uleb128 0x49
 509 0024 13       		.uleb128 0x13
ARM GAS  C:\Users\dmarsch\AppData\Local\Temp\ccrn8BQz.s 			page 10


 510 0025 00       		.byte	0
 511 0026 00       		.byte	0
 512 0027 04       		.uleb128 0x4
 513 0028 24       		.uleb128 0x24
 514 0029 00       		.byte	0
 515 002a 0B       		.uleb128 0xb
 516 002b 0B       		.uleb128 0xb
 517 002c 3E       		.uleb128 0x3e
 518 002d 0B       		.uleb128 0xb
 519 002e 03       		.uleb128 0x3
 520 002f 08       		.uleb128 0x8
 521 0030 00       		.byte	0
 522 0031 00       		.byte	0
 523 0032 05       		.uleb128 0x5
 524 0033 01       		.uleb128 0x1
 525 0034 01       		.byte	0x1
 526 0035 49       		.uleb128 0x49
 527 0036 13       		.uleb128 0x13
 528 0037 01       		.uleb128 0x1
 529 0038 13       		.uleb128 0x13
 530 0039 00       		.byte	0
 531 003a 00       		.byte	0
 532 003b 06       		.uleb128 0x6
 533 003c 21       		.uleb128 0x21
 534 003d 00       		.byte	0
 535 003e 49       		.uleb128 0x49
 536 003f 13       		.uleb128 0x13
 537 0040 2F       		.uleb128 0x2f
 538 0041 0B       		.uleb128 0xb
 539 0042 00       		.byte	0
 540 0043 00       		.byte	0
 541 0044 07       		.uleb128 0x7
 542 0045 26       		.uleb128 0x26
 543 0046 00       		.byte	0
 544 0047 49       		.uleb128 0x49
 545 0048 13       		.uleb128 0x13
 546 0049 00       		.byte	0
 547 004a 00       		.byte	0
 548 004b 08       		.uleb128 0x8
 549 004c 34       		.uleb128 0x34
 550 004d 00       		.byte	0
 551 004e 03       		.uleb128 0x3
 552 004f 0E       		.uleb128 0xe
 553 0050 3A       		.uleb128 0x3a
 554 0051 0B       		.uleb128 0xb
 555 0052 3B       		.uleb128 0x3b
 556 0053 0B       		.uleb128 0xb
 557 0054 49       		.uleb128 0x49
 558 0055 13       		.uleb128 0x13
 559 0056 3F       		.uleb128 0x3f
 560 0057 19       		.uleb128 0x19
 561 0058 02       		.uleb128 0x2
 562 0059 18       		.uleb128 0x18
 563 005a 00       		.byte	0
 564 005b 00       		.byte	0
 565 005c 00       		.byte	0
 566              		.section	.debug_aranges,"",%progbits
ARM GAS  C:\Users\dmarsch\AppData\Local\Temp\ccrn8BQz.s 			page 11


 567 0000 14000000 		.4byte	0x14
 568 0004 0200     		.2byte	0x2
 569 0006 00000000 		.4byte	.Ldebug_info0
 570 000a 04       		.byte	0x4
 571 000b 00       		.byte	0
 572 000c 0000     		.2byte	0
 573 000e 0000     		.2byte	0
 574 0010 00000000 		.4byte	0
 575 0014 00000000 		.4byte	0
 576              		.section	.debug_line,"",%progbits
 577              	.Ldebug_line0:
 578 0000 3D010000 		.section	.debug_str,"MS",%progbits,1
 578      02003701 
 578      00000201 
 578      FB0E0D00 
 578      01010101 
 579              	.LASF9:
 580 0000 5F5F7569 		.ascii	"__uint8_t\000"
 580      6E74385F 
 580      7400
 581              	.LASF16:
 582 000a 63795F6D 		.ascii	"cy_metadata\000"
 582      65746164 
 582      61746100 
 583              	.LASF19:
 584 0016 433A5C55 		.ascii	"C:\\Users\\dmarsch\\Documents\\lab8\\lab8\\lab8.cyd"
 584      73657273 
 584      5C646D61 
 584      72736368 
 584      5C446F63 
 585 0043 736E00   		.ascii	"sn\000"
 586              	.LASF1:
 587 0046 756E7369 		.ascii	"unsigned char\000"
 587      676E6564 
 587      20636861 
 587      7200
 588              	.LASF17:
 589 0054 474E5520 		.ascii	"GNU C11 5.4.1 20160609 (release) [ARM/embedded-5-br"
 589      43313120 
 589      352E342E 
 589      31203230 
 589      31363036 
 590 0087 616E6368 		.ascii	"anch revision 237715] -mcpu=cortex-m3 -mthumb -g -O"
 590      20726576 
 590      6973696F 
 590      6E203233 
 590      37373135 
 591 00ba 67202D66 		.ascii	"g -ffunction-sections -ffat-lto-objects\000"
 591      66756E63 
 591      74696F6E 
 591      2D736563 
 591      74696F6E 
 592              	.LASF5:
 593 00e2 6C6F6E67 		.ascii	"long unsigned int\000"
 593      20756E73 
 593      69676E65 
 593      6420696E 
ARM GAS  C:\Users\dmarsch\AppData\Local\Temp\ccrn8BQz.s 			page 12


 593      7400
 594              	.LASF3:
 595 00f4 73686F72 		.ascii	"short unsigned int\000"
 595      7420756E 
 595      7369676E 
 595      65642069 
 595      6E7400
 596              	.LASF13:
 597 0107 63795F6D 		.ascii	"cy_meta_custnvl\000"
 597      6574615F 
 597      63757374 
 597      6E766C00 
 598              	.LASF12:
 599 0117 63795F6D 		.ascii	"cy_meta_configecc\000"
 599      6574615F 
 599      636F6E66 
 599      69676563 
 599      6300
 600              	.LASF8:
 601 0129 756E7369 		.ascii	"unsigned int\000"
 601      676E6564 
 601      20696E74 
 601      00
 602              	.LASF7:
 603 0136 6C6F6E67 		.ascii	"long long unsigned int\000"
 603      206C6F6E 
 603      6720756E 
 603      7369676E 
 603      65642069 
 604              	.LASF10:
 605 014d 75696E74 		.ascii	"uint8_t\000"
 605      385F7400 
 606              	.LASF15:
 607 0155 63795F6D 		.ascii	"cy_meta_flashprotect\000"
 607      6574615F 
 607      666C6173 
 607      6870726F 
 607      74656374 
 608              	.LASF14:
 609 016a 63795F6D 		.ascii	"cy_meta_wonvl\000"
 609      6574615F 
 609      776F6E76 
 609      6C00
 610              	.LASF11:
 611 0178 73697A65 		.ascii	"sizetype\000"
 611      74797065 
 611      00
 612              	.LASF6:
 613 0181 6C6F6E67 		.ascii	"long long int\000"
 613      206C6F6E 
 613      6720696E 
 613      7400
 614              	.LASF2:
 615 018f 73686F72 		.ascii	"short int\000"
 615      7420696E 
 615      7400
 616              	.LASF4:
ARM GAS  C:\Users\dmarsch\AppData\Local\Temp\ccrn8BQz.s 			page 13


 617 0199 6C6F6E67 		.ascii	"long int\000"
 617      20696E74 
 617      00
 618              	.LASF0:
 619 01a2 7369676E 		.ascii	"signed char\000"
 619      65642063 
 619      68617200 
 620              	.LASF18:
 621 01ae 47656E65 		.ascii	"Generated_Source\\PSoC5\\cymetadata.c\000"
 621      72617465 
 621      645F536F 
 621      75726365 
 621      5C50536F 
 622              		.ident	"GCC: (GNU Tools for ARM Embedded Processors) 5.4.1 20160609 (release) [ARM/embedded-5-bran
